Place,Division,Equipment,Sex,Name,BirthYear,BodyweightKg,Country,Event,Best3SquatKg,Bench1Kg,Bench2Kg,Bench3Kg,Bench4Kg,Best3BenchKg,Deadlift1Kg,Deadlift2Kg,Deadlift3Kg,Deadlift4Kg,Best3DeadliftKg,TotalKg,WeightClassKg
1,T1,Multi-ply,F,Vladislava Dluzhnevskaia,2000,51.9,Russia,B,,80,85,-92.5,,85,,,,,,85,52
1,T1,Multi-ply,F,Maryana Naumova,1999,72.2,Russia,B,,112.5,120,130,135,130,,,,,,130,75
1,Juniors,Multi-ply,F,Tánia Salgueiro,1990,55.4,Portugal,B,,75,85,-92.5,,85,,,,,,85,56
1,Juniors,Multi-ply,F,Júlia Kostúrová,1989,78,Slovakia,B,,160,172.5,180,182.5,180,,,,,,180,82.5
1,Juniors,Multi-ply,F,Anna Mccloskey,1993,86.3,USA,B,,132.5,140,145,-150,145,,,,,,145,90
1,Open,Multi-ply,F,Vladislava Dluzhnevskaia,2000,51.9,Russia,B,,80,85,-92.5,,85,,,,,,85,52
1,Open,Multi-ply,F,Dagmar Liptáková,1976,62.7,Slovakia,B,,127.5,-135,135,,135,,,,,,135,67.5
1,Open,Multi-ply,F,Ichinnorov Darkhanbaatar,1989,74.5,Mongolia,B,,150,157.5,162.5,,162.5,,,,,,162.5,75
2,Open,Multi-ply,F,Maryana Naumova,1999,72.2,Russia,B,,112.5,120,130,135,130,,,,,,130,75
3,Open,Multi-ply,F,Sandrine Platel,1974,73.5,France,B,,125,-130,-132.5,,125,,,,,,125,75
4,Open,Multi-ply,F,Zdenka Hudíková,1980,75,Slovakia,B,,95,102.5,-110,,102.5,,,,,,102.5,75
5,Open,Multi-ply,F,Inna Yudina,1978,75,Ukraine,B,,-97.5,97.5,-107.5,,97.5,,,,,,97.5,75
1,Open,Multi-ply,F,Turaeva Anna,1978,82,Russia,B,,165,175,-185,,175,,,,,,175,82.5
1,Open,Multi-ply,F,Anna Mccloskey,1993,86.3,USA,B,,132.5,140,145,-150,145,,,,,,145,90
1,M1,Single-ply,F,Emma Ylitalo-James,1969,88.6,UK,B,,192.5,200,-207.5,,200,,,,,,200,90
1,M2,Multi-ply,F,Elena Sheverdina,1968,73.6,Russia,B,,140,150,160,170,160,,,,,,160,75
1,M3,Multi-ply,F,Lolita Zankl,1959,65.7,Germany,B,,97.5,102.5,107.5,,107.5,,,,,,107.5,67.5
1,M5,Multi-ply,F,Inge Kaule,1952,50,Germany,B,,52.5,55,57.5,-60,57.5,,,,,,57.5,52
1,T2,Multi-ply,M,Marek Herák,1995,55.2,Slovakia,B,,130,-140,-145,,130,,,,,,130,56
1,T2,Multi-ply,M,Miroslav Adamove,1997,74.8,Slovakia,B,,160,170,180,-188,180,,,,,,180,75
1,T3,Multi-ply,M,Gabriel Kováč,1995,79.6,Slovakia,B,,230,250,-260,,250,,,,,,250,82.5
2,T3,Multi-ply,M,Lukáš Čupka,1995,78.6,Slovakia,B,,140,-170,-170,,140,,,,,,140,82.5
1,T3,Multi-ply,M,Gennadiy Popov,1994,96.1,Ukraine,B,,180,190,-205,,190,,,,,,190,100
1,Juniors,Multi-ply,M,Oleksii Gornyi,1992,66.4,Ukraine,B,,130,140,145,,145,,,,,,145,67.5
1,Juniors,Multi-ply,M,Dániel Égei,1992,79.4,Hungary,B,,210,-225,230,,230,,,,,,230,82.5
2,Juniors,Multi-ply,M,Jamal Mammadov,1991,82,Azerbaijan,B,,-180,180,187.5,,187.5,,,,,,187.5,82.5
3,Juniors,Multi-ply,M,Gerrit Scheel,1991,81.8,Germany,B,,175,182.5,185,,185,,,,,,185,82.5
1,Juniors,Multi-ply,M,Kalle Räsänen,1990,89.7,Finland,B,,-250,250,-270,,250,,,,,,250,90
2,Juniors,Multi-ply,M,Miroslav Čaba,1993,88.4,Slovakia,B,,220,232.5,-240,,232.5,,,,,,232.5,90
3,Juniors,Multi-ply,M,Shinebayar Rentsentsedev,1992,89.4,Mongolia,B,,230,-240,-240,,230,,,,,,230,90
1,Juniors,Multi-ply,M,Tomáš Kalenský,1992,91,Czechia,B,,182.5,192.5,200,,200,,,,,,200,100
1,Juniors,Multi-ply,M,Gábor Katona,1991,104.1,Hungary,B,,320,330,343,,343,,,,,,343,110
2,Juniors,Multi-ply,M,Serhii Ivanov,1990,103.8,Ukraine,B,,300,-320,-332.5,,300,,,,,,300,110
1,Juniors,Multi-ply,M,Michal Líška,1993,110.3,Slovakia,B,,230,250,261,270,261,,,,,,261,125
1,Juniors,Multi-ply,M,Sten Haugas,1990,126.1,Estonia,B,,230,240,-250,,240,,,,,,240,140
1,Open,Multi-ply,M,Ayrat Sufiyanov,1984,64.6,Russia,B,,187.5,-195,-195,,187.5,,,,,,187.5,67.5
2,Open,Multi-ply,M,Stanislav Marochko,1981,67.1,Ukraine,B,,155,-165,165,,165,,,,,,165,67.5
1,Open,Multi-ply,M,Roman Pelykh,1985,74.6,Ukraine,B,,220,-235,-235,,220,,,,,,220,75
2,Open,Multi-ply,M,Oleksii Slyuschenko,1984,74.8,Ukraine,B,,165,180,200,,200,,,,,,200,75
1,Open,Multi-ply,M,Kamil Gafarov,1984,82.1,Azerbaijan,B,,222.5,232.5,240,,240,,,,,,240,82.5
2,Open,Multi-ply,M,Yerlan Alkeyev,1989,82.5,Kazakhstan,B,,212.5,-225,227.5,,227.5,,,,,,227.5,82.5
3,Open,Multi-ply,M,Adriy Dyatlov,1985,82.5,Ukraine,B,,205,215,225,,225,,,,,,225,82.5
DQ,Open,Multi-ply,M,Dmitry Kochevatkin,1976,81.4,Russia,B,,-225,-225,-225,,,,,,,,,82.5
DQ,Open,Multi-ply,M,Armen Khachaturyan,1976,81.4,Russia,B,,-225,-225,-225,,,,,,,,,82.5
1,Open,Multi-ply,M,Alexander Petrov,1960,89.6,Russia,B,,245,260,-265,,260,,,,,,260,90
2,Open,Multi-ply,M,Christoph Scheel,1985,90,Germany,B,,240,-245,245,,245,,,,,,245,90
3,Open,Multi-ply,M,Sergey Vinnichenko,1974,90,Russia,B,,-230,230,-242.5,,230,,,,,,230,90
4,Open,Multi-ply,M,Pieter Flamme,1984,88.4,France,B,,200,210,220,,220,,,,,,220,90
5,Open,Multi-ply,M,Didier Theux,1958,89.1,France,B,,212.5,-220,-220,,212.5,,,,,,212.5,90
DQ,Open,Multi-ply,M,Yury Korikov,1962,89.4,Russia,B,,-220,-230,-230,,,,,,,,,90
DQ,Open,Multi-ply,M,Dmitro Lomeyko,1983,89.9,Ukraine,B,,-240,-240,-240,,,,,,,,,90
1,Open,Multi-ply,M,Reza Golmohammadi,1975,98.4,Finland,B,,-315,315,-325,,315,,,,,,315,100
2,Open,Multi-ply,M,Igor Sergeev,1966,96.9,Russia,B,,-270,270,280,,280,,,,,,280,100
3,Open,Multi-ply,M,Oskari Lehtinen Oskari,1989,97.7,Finland,B,,265,275,,,275,,,,,,275,100
4,Open,Multi-ply,M,Bruno Alves,1988,99.6,Portugal,B,,220,232.5,245,,245,,,,,,245,100
5,Open,Multi-ply,M,Sergii Burik,1976,98.4,Ukraine,B,,220,-232.5,-232.5,,220,,,,,,220,100
DQ,Open,Multi-ply,M,Marat Abdullin,1985,98.5,Russia,B,,-307.5,-307.5,-307.5,,,,,,,,,100
DQ,Open,Multi-ply,M,Sergii Didovyk,1978,99.3,Ukraine,B,,-300,-300,-300,,,,,,,,,100
DQ,Open,Multi-ply,M,Michał Wilk,1981,99.4,Poland,B,,-315,-315,-322.5,,,,,,,,,100
DQ,Open,Multi-ply,M,Emin Mamedov,1974,99.7,Russia,B,,-320,-320,-320,,,,,,,,,100
1,Open,Multi-ply,M,Bruno Szambelanczyk,1980,109.3,France,B,,-300,300,305,,305,,,,,,305,110
2,Open,Multi-ply,M,Petr Bolf,1987,109.4,Czechia,B,,300,-310,-310,,300,,,,,,300,110
3,Open,Multi-ply,M,Nikolay Alyshev,1985,105.2,Russia,B,,240,260,-270,,260,,,,,,260,110
4,Open,Multi-ply,M,Sergey Kakichev,1980,109.2,Russia,B,,260,-280,-280,,260,,,,,,260,110
5,Open,Multi-ply,M,Gennady Obermeister,1970,109.1,Israel,B,,240,250,-260,,250,,,,,,250,110
6,Open,Multi-ply,M,Heiko Fritsch,1979,101.7,Germany,B,,230,-240,-240,,230,,,,,,230,110
DQ,Open,Multi-ply,M,Serhii Polutin,1975,104.6,Ukraine,B,,-300,-300,,,,,,,,,,110
DQ,Open,Multi-ply,M,Kalle Ylitalo,1983,109.4,Finland,B,,-292.5,-292.5,-302.5,,,,,,,,,110
DQ,Open,Multi-ply,M,Ibrahim Ibrahimov,1981,109.8,Azerbaijan,B,,-310,-312.5,-312.5,,,,,,,,,110
1,Open,Multi-ply,M,Victor Naydenov,1987,121.1,Russia,B,,-380,380,-400,,380,,,,,,380,125
2,Open,Multi-ply,M,Petteri Hosio,1979,114,Finland,B,,320,-330,-337.5,,320,,,,,,320,125
3,Open,Multi-ply,M,Didier Michelon,1963,116.5,France,B,,-315,317.5,-335.5,,317.5,,,,,,317.5,125
4,Open,Multi-ply,M,Dmitry Gorbachev,1970,114.8,Russia,B,,-315,315,-320,,315,,,,,,315,125
5,Open,Multi-ply,M,Mickael Dupire,1974,117.5,France,B,,-260,260,275,,275,,,,,,275,125
6,Open,Multi-ply,M,Vadim Evtushenko,1974,114.6,Russia,B,,260,-270,-270,,260,,,,,,260,125
DQ,Open,Multi-ply,M,Viktor Klimov,1975,115.3,Russia,B,,-310,-310,-315,,,,,,,,,125
1,Open,Multi-ply,M,Dmitry Permyakov,1975,129.6,Russia,B,,330,345,-352.5,,345,,,,,,345,140
2,Open,Multi-ply,M,Jiří Havrda,1974,139.9,Czechia,B,,320,342.5,-352.5,,342.5,,,,,,342.5,140
3,Open,Multi-ply,M,Georgy Lopatskyi,1962,128,Russia,B,,275,285,,,285,,,,,,285,140
4,Open,Multi-ply,M,Denis Semenov,1974,126.3,Russia,B,,-280,280,-300,,280,,,,,,280,140
5,Open,Multi-ply,M,Denis Makeev,1983,132.4,Russia,B,,-190,190,195,,195,,,,,,195,140
DQ,Open,Multi-ply,M,Bahman Halimimaghani,1984,125.4,Iran,B,,-350,-350,,,,,,,,,,140
1,Open,Multi-ply,M,Marko Traks,1989,159.5,Estonia,B,,-315,315,-325,,315,,,,,,315,140+
DQ,Open,Multi-ply,M,Richard Ligier,1974,148.3,France,B,,-440,-480,-500,,,,,,,,,140+
DQ,Open,Multi-ply,M,Oleg Kozyrev,1975,215,Russia,B,,-300,,,,,,,,,,,140+
1,M1,Multi-ply,M,Vladimir Shmelev,1972,79.9,Russia,B,,170,175,180,,180,,,,,,180,82.5
1,M1,Multi-ply,M,Imrich Klacso,1970,98.3,Slovakia,B,,230,-237.5,237.5,,237.5,,,,,,237.5,100
2,M1,Multi-ply,M,Aleksandr Terentev,1969,99.6,Russia,B,,-230,-230,232.5,,232.5,,,,,,232.5,100
3,M1,Multi-ply,M,Kamil Grim,1969,99,Czechia,B,,-190,-190,190,,190,,,,,,190,100
1,M1,Multi-ply,M,Vladimir Omelkov,1970,107.4,Russia,B,,250,-260,-265,,250,,,,,,250,110
2,M1,Multi-ply,M,Gennady Obermeister,1970,109.1,Israel,B,,240,250,-260,,250,,,,,,250,110
3,M1,Multi-ply,M,Richard Riso,1970,104.4,France,B,,-190,-190,190,,190,,,,,,190,110
DQ,M1,Multi-ply,M,Eric Platel,1971,106.5,France,B,,-270,-270,-270,,,,,,,,,110
1,M1,Multi-ply,M,Dmitry Gorbachev,1970,114.8,Russia,B,,-315,315,-320,,315,,,,,,315,125
DQ,Open,Multi-ply,M,Pavel Chidingov,1969,111.5,Russia,B,,,,,,,,,,,,,125
1,M1,Multi-ply,M,Dmitro Sharoyko,1972,138.6,Ukraine,B,,300,-315,315,,315,,,,,,315,140
2,M1,Multi-ply,M,Alexey Brazhkin,1971,132.5,Russia,B,,230,252.5,260,,260,,,,,,260,140
DQ,Open,Multi-ply,M,Mikhail Reutov,1972,126.7,Russia,B,,-250,-250,-250,,,,,,,,,140
1,M1,Multi-ply,M,Jan Vítek,1971,142.3,Czechia,B,,190,205,-217.5,,205,,,,,,205,140+
1,M2,Multi-ply,M,Pascal Costa,1967,75,France,B,,150,160,-170,,160,,,,,,160,75
1,M2,Multi-ply,M,Valery Tomilov,1965,89.6,Israel,B,,-220,-220,220,,220,,,,,,220,90
2,M2,Multi-ply,M,Igor Shubin,1964,89.9,Ukraine,B,,160,-180,,,160,,,,,,160,90
1,M2,Multi-ply,M,Igor Sergeev,1966,96.9,Russia,B,,-270,270,280,,280,,,,,,280,100
2,M2,Multi-ply,M,Konstantin Kiselev,1965,93.4,Russia,B,,-195,200,-210,,200,,,,,,200,100
3,M2,Multi-ply,M,Sergejs Vinogradovs,1965,96.5,Latvia,B,,185,-190,-190,,185,,,,,,185,100
DQ,M2,Multi-ply,M,Stéphane Gurini,1965,98.5,France,B,,-210,-210,-210,,,,,,,,,100
DQ,M2,Multi-ply,M,Michael Göck,1968,100,Germany,B,,-200,-200,-200,,,,,,,,,100
1,M2,Multi-ply,M,Marko Lempinen,1966,106.6,Finland,B,,240,-250,-250,,240,,,,,,240,110
2,M2,Multi-ply,M,Sergey Mavrenkov,1966,103,Russia,B,,210,-222.5,-240,,210,,,,,,210,110
1,M2,Multi-ply,M,Timo Majuri,1967,121.1,Estonia,B,,310,325.5,330,,330,,,,,,330,125
2,M2,Multi-ply,M,Alexey Neklyudov,1964,115.1,Russia,B,,290,-310,-310,,290,,,,,,290,125
3,M2,Multi-ply,M,Karol Repiský,1964,113.4,Slovakia,B,,210,230,242.5,,242.5,,,,,,242.5,125
1,M2,Multi-ply,M,Alexandr Erozidi,1965,134.9,Russia,B,,260,275,285,290,285,,,,,,285,140
1,M3,Multi-ply,M,Anatoly Nefëdov,1963,72.1,Russia,B,,155,160,165,,165,,,,,,165,75
2,M3,Multi-ply,M,Michel Fauque,1959,74.5,France,B,,140,-150,150,,150,,,,,,150,75
1,M3,Multi-ply,M,Alexander Petrov,1960,89.6,Russia,B,,245,260,-265,,260,,,,,,260,90
2,M3,Multi-ply,M,Yury Korikov,1962,89.4,Russia,B,,210,-220,-220,,210,,,,,,210,90
1,M3,Multi-ply,M,Ultfert Rinas,1959,97.6,Germany,B,,185,190,,,190,,,,,,190,100
1,M3,Multi-ply,M,Didier Michelon,1963,116.5,France,B,,-315,317.5,-335.5,,317.5,,,,,,317.5,125
2,M3,Multi-ply,M,Michel Krzonkalla,1963,123.2,France,B,,215,225,-230,,225,,,,,,225,125
1,M3,Multi-ply,M,Georgy Lopatskyi,1962,128,Russia,B,,275,285,,,285,,,,,,285,140
1,M3,Multi-ply,M,Kari Kalliola,1963,167.2,Finland,B,,290,-320,-320,,290,,,,,,290,140+
1,M4,Multi-ply,M,Haus-Jürgen Kaule,1954,74.2,Germany,B,,-160,-160,160,,160,,,,,,160,75
1,M4,Multi-ply,M,Thomas Wagner,1956,81.5,Germany,B,,112.5,117.5,120,,120,,,,,,120,82.5
1,M4,Multi-ply,M,Evgeny Basov,1955,89.2,Russia,B,,165,175,-185,,175,,,,,,175,90
2,M4,Multi-ply,M,Milan Vezmar,1956,89,Serbia,B,,120,152.5,162.5,,162.5,,,,,,162.5,90
DQ,M4,Multi-ply,M,Alain-Francis Mattei,1955,84.8,France,B,,-170,-175,-180,,,,,,,,,90
DQ,M4,Multi-ply,M,Didier Theux,1958,89.1,France,B,,-210,-210,-210,,,,,,,,,90
DQ,M4,Multi-ply,M,József Sztanke,1954,89.3,Hungary,B,,-200,-200,-212.5,,,,,,,,,90
1,M4,Multi-ply,M,Vitaliy Ponomarev,1957,98.3,Russia,B,,237.5,242.5,247.5,,247.5,,,,,,247.5,100
2,M4,Multi-ply,M,Dan Martin,1956,96.7,USA,B,,-187.5,-187.5,187.5,,187.5,,,,,,187.5,100
DQ,M4,Multi-ply,M,Bruce McIntyre,1957,98.1,Canada,B,,-235,-235,-235,,,,,,,,,100
1,M4,Multi-ply,M,Valeriy Akentyev,1958,104.7,Russia,B,,230,237.5,243,245,243,,,,,,243,110
2,M4,Multi-ply,M,Joe Smolinski,1955,108,USA,B,,225,236,242.5,-244,242.5,,,,,,242.5,110
1,M4,Multi-ply,M,Péter Mihály,1958,150.8,Slovakia,B,,-230,280,305,,305,,,,,,305,140+
1,M5,Multi-ply,M,Klaus Krüger,1952,88.5,Germany,B,,175,190,-200,,190,,,,,,190,90
2,M5,Multi-ply,M,Valerijs Lagejevs,1949,89.9,Latvia,B,,150,160,-165,,160,,,,,,160,90
1,M5,Multi-ply,M,Haus-Jürgen Borkowski,1950,96.8,Germany,B,,150,160,,,160,,,,,,160,100
1,M5,Multi-ply,M,Ulrich Vetter,1952,107.8,Germany,B,,180,-190,-190,,180,,,,,,180,110
1,M5,Multi-ply,M,Josef Hakl,1950,111.6,Czechia,B,,170,-185,-185,,170,,,,,,170,125
1,M5,Multi-ply,M,Tapio Laine,1952,132.1,Finland,B,,250,260,-270,,260,,,,,,260,140
DQ,M5,Multi-ply,M,Jozef Péter,1950,131.9,Slovakia,B,,-200,-200,-210,,,,,,,,,140
1,M6,Multi-ply,M,Valerijs Petrovs,1946,88.4,Latvia,B,,140,150,-157.5,,150,,,,,,150,90
1,M6,Multi-ply,M,František Esser,1946,91.7,Czechia,B,,130,-140,-140,,130,,,,,,130,100
DQ,M6,Multi-ply,M,Pekka Korhonen,1944,102.8,Finland,B,,-140,-145,-145,,,,,,,,,110
1,M7,Multi-ply,M,Tsegmed Byambaa,1940,74.7,Mongolia,B,,85,100,,,100,,,,,,100,75
1,M7,Multi-ply,M,Peter Herrmann,1942,81.6,Switzerland,B,,120,125,-130,,125,,,,,,125,82.5
1,M8,Multi-ply,M,Grigori Rubin,1936,75.1,Israel,B,,110,115,-120,,115,,,,,,115,82.5
2,M8,Multi-ply,M,Gerd Meyerhofer,1938,78,Germany,B,,60,67.5,-72.5,,67.5,,,,,,67.5,82.5
1,T1,Raw,F,Elizabet Tomilov,2003,38.5,Israel,B,,30,32.5,-35,,32.5,,,,,,32.5,52
DQ,Open,Raw,F,Vladislava Dluzhnevskaia,2000,52,Russia,B,,-80,-80,-80,,,,,,,,,52
1,Open,Raw,F,Mariana Naumova,1999,72.6,Russia,B,,100,110,-115,,110,,,,,,110,75
1,Juniors,Raw,F,Janica Timonen,1990,66.4,Finland,B,,70,75,-77.5,,75,,,,,,75,67.5
1,Open,Raw,F,Anna Mccloskey,1993,86.5,USA,B,,85,-92.5,-92.5,,85,,,,,,85,90
1,Open,Raw,F,Dóra Schopf,1974,50.8,Hungary,B,,70,75,77.5,-80,77.5,,,,,,77.5,52
2,Open,Raw,F,Szilvia Kaiser,1982,51.9,Hungary,B,,47.5,-52.5,52.5,,52.5,,,,,,52.5,52
1,Open,Raw,F,Ekaterina Puzyrenko,1976,55.7,Russia,B,,85,-90,-90,,85,,,,,,85,56
2,Open,Raw,F,Natalia Zorina,1970,54.6,Russia,B,,65,-70,-70,,65,,,,,,65,56
1,Open,Raw,F,Larisa Gvozdeva,1965,60,Russia,B,,100,105,-107.5,,105,,,,,,105,60
2,Open,Raw,F,Mariya Timoshina,1984,58.9,Kazakhstan,B,,85,90,95,,95,,,,,,95,60
3,Open,Raw,F,Merja Mansikkaviita,1962,58.9,Finland,B,,87.5,90,93.5,,93.5,,,,,,93.5,60
4,Open,Raw,F,Davaa Tumurau,1980,59.1,Mongolia,B,,65,70,-75,,70,,,,,,70,60
DQ,Open,Raw,F,Alina Arakelova,1981,58.7,Russia,B,,-40,-40,-40,,,,,,,,,60
1,Open,Raw,F,Dariya Krenn,1975,64.7,Russia,B,,-110,110,115,,115,,,,,,115,67.5
2,Open,Raw,F,Lolita Zankl,1959,67.5,Germany,B,,97.5,105,-107.5,,105,,,,,,105,67.5
3,Open,Raw,F,Mariya Yastrebova,1988,64.5,Kazakhstan,B,,80,85,-90,,85,,,,,,85,67.5
4,Open,Raw,F,Ljubov Maltseva,1976,65.1,Russia,B,,85,-90,-97.5,,85,,,,,,85,67.5
5,Open,Raw,F,Liliia Kuznetcova,1988,66.7,Russia,B,,42.5,45,-50,,45,,,,,,45,67.5
DQ,Open,Raw,F,Corrine Ingman,1988,66.5,UK,B,,-105,-105,-105,,,,,,,,,67.5
1,Open,Raw,F,Maria Grishechkina,1983,74.2,Russia,B,,105,115,-120,,115,,,,,,115,75
2,Open,Raw,F,Ichinnorau Darkhanbautar,1989,74.9,Mongolia,B,,107.5,112.5,-117.5,,112.5,,,,,,112.5,75
3,Open,Raw,F,Mariana Naumova,1999,72.6,Russia,B,,100,110,-115,,110,,,,,,110,75
4,Open,Raw,F,Sandrine Platel,1974,74.2,France,B,,85,90,-95,,90,,,,,,90,75
5,Open,Raw,F,Jelena Tomič,1986,71.1,Serbia,B,,70,77.5,-80,,77.5,,,,,,77.5,75
1,Open,Raw,F,Turaeva Anna,1978,82.4,Russia,B,,125,132.5,137.5,142,137.5,,,,,,137.5,82.5
2,Open,Raw,F,Daria Kogadeeva,1978,80.3,Russia,B,,120,125,130,,130,,,,,,130,82.5
1,Open,Raw,F,Anna Mccloskey,1993,86.5,USA,B,,85,-92.5,-92.5,,85,,,,,,85,90
2,Open,Raw,F,Cindy Costin-Fury,1982,88,Canada,B,,67.5,-75,-75,,67.5,,,,,,67.5,90
1,Open,Raw,F,Kristy Reske,1977,123.2,USA,B,,125,137.5,141,142,141,,,,,,141,90+
1,M1,Raw,F,Svitlana Klochkova,1968,50.9,Ukraine,B,,-37.5,-37.5,37.5,,37.5,,,,,,37.5,52
1,M1,Raw,F,Natalia Zorina,1970,54.6,Russia,B,,65,-70,-70,,65,,,,,,65,56
1,Open,Raw,F,Marianna Óvári,1973,75.3,Hungary,B,,115,-122.5,-122.5,,115,,,,,,115,82.5
1,m2,Raw,F,Svetlana Kivorkova,1967,55.6,Russia,B,,40,45,-55,,45,,,,,,45,56
1,m2,Raw,F,Svetlana Sinacheva,1966,73.4,Russia,B,,102.5,107.5,-110,,107.5,,,,,,107.5,75
1,m3,Raw,F,Merja Mansikkaviita,1962,58.9,Finland,B,,87.5,90,93.5,94.5,93.5,,,,,,93.5,60
1,m3,Raw,F,Lolita Zankl,1959,67.5,Germany,B,,97.5,102.5,105,,105,,,,,,105,67.5
1,m5,Raw,F,Ursula Eulenstein,1949,73.4,Germany,B,,67.5,70,72.5,,72.5,,,,,,72.5,75
1,m6,Raw,F,Leslie Watson,1948,43.6,UK,B,,57.5,-60,-60,,57.5,,,,,,57.5,52
1,m6,Raw,F,Nelly Herrmann,1944,66.7,Switzerland,B,,52.5,55,-57.5,,55,,,,,,55,67.5
1,T1,Raw,M,Kirilo Sharoyko,1998,79.3,Ukraine,B,,85,-95,-95,,85,,,,,,85,82.5
1,T1,Raw,M,Dominic Swanson,1998,99,USA,B,,117.5,120,125,-127.5,125,,,,,,125,100
1,t2,Raw,M,Marek Herák,1995,54.9,Slovakia,B,,100,105,107.5,,107.5,,,,,,107.5,56
1,t2,Raw,M,Julian Vigh,1997,63.7,Switzerland,B,,92.5,97.5,-105,,97.5,,,,,,97.5,67.5
1,t2,Raw,M,Miroslav Adamove,1997,72.4,Slovakia,B,,120,127.5,132.5,,132.5,,,,,,132.5,75
1,t2,Raw,M,Lukáš Čupka,1997,78.9,Slovakia,B,,110,115,117.5,,117.5,,,,,,117.5,82.5
2,t2,Raw,M,Ján Orosz,1996,78.1,Slovakia,B,,95,100,-105,,100,,,,,,100,82.5
1,t2,Raw,M,Andrey Gabuev,1996,87.9,Russia,B,,100,110,-115,,110,,,,,,110,90
1,t2,Raw,M,Sebastian Schindecker,1996,95,Germany,B,,-130,130,-140,,130,,,,,,130,100
1,t3,Raw,M,Marek Vadkerti,1995,57.1,Slovakia,B,,85,90,95,,95,,,,,,95,60
1,t3,Raw,M,Gabriel Kováč,1995,80.8,Slovakia,B,,170,175,180,-185,180,,,,,,180,82.5
2,t3,Raw,M,Rui Carreira,1994,81.9,Portugal,B,,160,-172.5,-177.5,,160,,,,,,160,82.5
1,Juniors,Raw,M,Gerrit Scheel,1991,82,Germany,B,,157.5,162.5,170,,170,,,,,,170,82.5
2,Juniors,Raw,M,Dmitry Kazakov,1990,80.4,Russia,B,,155,-160,162.5,,162.5,,,,,,162.5,82.5
3,Juniors,Raw,M,Tuomas Monenen,1990,81.6,Finland,B,,155,162.5,-170,,162.5,,,,,,162.5,82.5
DQ,Juniors,Raw,M,Aaron Keriguy,1991,78.4,France,B,,-142.5,-142.5,-142.5,,,,,,,,,82.5
1,Juniors,Raw,M,Shineboyar Rentsentsedev,1992,89.4,Mongolia,B,,150,162.5,-175,,162.5,,,,,,162.5,90
2,Juniors,Raw,M,Tomáš Kalenský,1992,89.3,Czechia,B,,132.5,140,-147.5,,140,,,,,,140,90
1,Juniors,Raw,M,Dávid Mészáros,1993,99.4,Hungary,B,,195,205,212.5,,212.5,,,,,,212.5,100
2,Juniors,Raw,M,Konstantīns Soboļevs,1990,99.6,Latvia,B,,185,-190,-190,,185,,,,,,185,100
3,Juniors,Raw,M,Marek Brna,1993,97.9,Slovakia,B,,170,180,182.5,,182.5,,,,,,182.5,100
4,Juniors,Raw,M,Josef Peška,1990,97.9,Czechia,B,,170,175,-182.5,,175,,,,,,175,100
1,Juniors,Raw,M,Reinis Kindzulis,1992,103.2,Latvia,B,,220,234.5,,,234.5,,,,,,234.5,110
2,Juniors,Raw,M,Norbert Váczi,1990,105.3,Hungary,B,,195,200,202.5,,202.5,,,,,,202.5,110
3,Juniors,Raw,M,Ruslan Kulebyakin,1991,106.3,Russia,B,,160,170,175,,175,,,,,,175,110
1,Juniors,Raw,M,Viktor Mima,1991,122.8,Ukraine,B,,180,190,-200,,190,,,,,,190,125
2,Juniors,Raw,M,Sten Haugas,1990,125,Estonia,B,,180,-190,-200,,180,,,,,,180,125
1,Open,Raw,M,Nándor Tunkel,1988,43.6,Hungary,B,,130,138.5,140,,140,,,,,,140,52
1,Open,Raw,M,Andrey Kim,1986,59.8,Kazakhstan,B,,135,-142.5,-142.5,,135,,,,,,135,60
2,Open,Raw,M,Rostyslav Borovskyi,1986,60,Ukraine,B,,105,110,-115,,110,,,,,,110,60
1,Special,Raw,M,Philippe Herzog,1961,65.7,Switzerland,B,,145,150,155,,155,,,,,,155,67.5
1,Open,Raw,M,Stanislav Marochko,1981,67.1,Ukraine,B,,130,137.5,-142.5,,137.5,,,,,,137.5,67.5
2,Open,Raw,M,Krisztián Kaiser,1977,67.5,Hungary,B,,125,-135,-135,,125,,,,,,125,67.5
1,Open,Raw,M,Samir Mammadov,1981,74.4,Azerbaijan,B,,175,185,-187.5,,185,,,,,,185,75
2,Open,Raw,M,Artur Belous,1985,74.1,Russia,B,,170,180,-187.5,,180,,,,,,180,75
3,Open,Raw,M,Alexandr Rabinovich,1967,73.3,Israel,B,,155,162.5,-170,,162.5,,,,,,162.5,75
4,Open,Raw,M,Christian Clampariu,1985,71.3,Austria,B,,-145,145,147.5,,147.5,,,,,,147.5,75
1,Open,Raw,M,Attila Gembiczki,1986,79.7,Hungary,B,,185,190,-192.5,,190,,,,,,190,82.5
2,Open,Raw,M,Kamil Gafarov,1984,82.1,Azerbaijan,B,,190,-202.5,-202.5,,190,,,,,,190,82.5
3,Open,Raw,M,Luis Simöes,1981,82.4,Portugal,B,,170,180,-192.5,,180,,,,,,180,82.5
4,Open,Raw,M,Gatis Biezais,1975,81.9,Latvia,B,,170,-175,-175,,170,,,,,,170,82.5
5,Open,Raw,M,Jamal Miammadov,1991,82,Azerbaijan,B,,150,162.5,,,162.5,,,,,,162.5,82.5
6,Open,Raw,M,Lucas Gijsbertsen,1987,77.9,Netherlands,B,,160,-170,-170,,160,,,,,,160,82.5
7,Open,Raw,M,David Cavanna,1975,81.3,France,B,,-160,160,-170,,160,,,,,,160,82.5
DQ,Open,Raw,M,Grigoriy Missurin,1983,81.2,Kazakhstan,B,,-197.5,-197.5,-197.5,,,,,,,,,82.5
DQ,Open,Raw,M,Yerlan Alkeyev,1989,82.5,Kazakhstan,B,,-200,-200,-200,,,,,,,,,82.5
1,Open,Raw,M,Christoph Scheel,1985,89.5,Germany,B,,200,-210,212.5,,212.5,,,,,,212.5,90
2,Open,Raw,M,Allan Jokinen,1981,89.9,Finland,B,,-210,212.5,-215,,212.5,,,,,,212.5,90
3,Open,Raw,M,Sergei Kultashov,1979,87.2,Russia,B,,200,-210,210,,210,,,,,,210,90
4,Open,Raw,M,Jakub Sedláček,1988,84.6,Czechia,B,,195,205,-210,,205,,,,,,205,90
5,Open,Raw,M,Patryk Szypuła,1979,89,Poland,B,,200,205,-210,,205,,,,,,205,90
6,Open,Raw,M,Evgeny Zankov,1984,90,Russia,B,,202.5,-207.5,-207.5,,202.5,,,,,,202.5,90
7,Open,Raw,M,Viesturs Eidemenis,1980,88.5,Latvia,B,,195,-200,-200,,195,,,,,,195,90
8,Open,Raw,M,Rami Leiviskä,1978,88.4,Finland,B,,190,-200,-200,,190,,,,,,190,90
9,Open,Raw,M,Dmitro Perederyi,1980,89.8,Ukraine,B,,-185,-185,185,,185,,,,,,185,90
10,Open,Raw,M,Gunduz Mammadov,1983,89.5,Azerbaijan,B,,180,-202.5,,,180,,,,,,180,90
11,Open,Raw,M,Alaxander Fedorov,1968,89.8,Russia,B,,175,-185,-185,,175,,,,,,175,90
12,Open,Raw,M,Deoliveria Rúben Emanuel Dias,1981,89.8,Portugal,B,,-160,-172.5,172.5,,172.5,,,,,,172.5,90
13,Open,Raw,M,Karel Mikeš,1976,89.9,Czechia,B,,145,-150,-155,,145,,,,,,145,90
1,Open,Raw,M,Oleg Bazilevich,1982,96.6,Ukraine,B,,225,235,252.5,-256,252.5,,,,,,252.5,100
2,Open,Raw,M,Florindo Figueiredo Pinheiro,1973,97.2,Portugal,B,,235,240,-253,,240,,,,,,240,100
3,Open,Raw,M,Zsolt Hetyési,1985,99.5,Hungary,B,,232.5,-237.5,-242.5,,232.5,,,,,,232.5,100
4,Open,Raw,M,Igor Sergeev,1966,97.9,Russia,B,,215,225,230,-233,230,,,,,,230,100
5,Open,Raw,M,Sergii Didovyk,1978,98.3,Ukraine,B,,210,-215,,,210,,,,,,210,100
6,Open,Raw,M,Mario Stellmach,1979,96.7,Germany,B,,-200,200,-212.5,,200,,,,,,200,100
7,Open,Raw,M,Ivan Solntcev,1974,97.9,Russia,B,,-200,200,-205,,200,,,,,,200,100
8,Open,Raw,M,Petr Maceášik,1975,99.8,Czechia,B,,200,-210,-210,,200,,,,,,200,100
9,Open,Raw,M,Andrey Gogolev,1987,99,Russia,B,,-187.5,-195,195,,195,,,,,,195,100
10,Open,Raw,M,Gary Topley,1984,95.9,UK,B,,170,180,-190,,180,,,,,,180,100
11,Open,Raw,M,Gavrilo Gavrilov,1985,97.8,Serbia,B,,180,-200,,,180,,,,,,180,100
DQ,Open,Raw,M,Gábor Berek,1987,97.3,Hungary,B,,-230,-232.5,-237.5,,,,,,,,,100
1,Open,Raw,M,Artur Rejek,1972,107.9,Poland,B,,230,235,237.5,-242.5,237.5,,,,,,237.5,110
2,Open,Raw,M,Andrey Sazonov,1980,104.3,Kazakhstan,B,,212.5,-225,235,,235,,,,,,235,110
3,Open,Raw,M,Ákos Oláh,1989,101.2,Hungary,B,,225,232.5,-237.5,,232.5,,,,,,232.5,110
4,Open,Raw,M,Serhii Polutin,1975,104.2,Ukraine,B,,-225,232.5,-237.5,,232.5,,,,,,232.5,110
5,Open,Raw,M,Oleksii Solovyov,1975,105.6,Ukraine,B,,222.5,232.5,-237.5,,232.5,,,,,,232.5,110
6,Open,Raw,M,Grzegorz Błachowiak,1982,106.4,Poland,B,,-230,230,-247.5,,230,,,,,,230,110
7,Open,Raw,M,Pavel Redkin,1985,109,Russia,B,,215,-225,-225,,215,,,,,,215,110
8,Open,Raw,M,Alexander Mantserov,1983,109.5,Russia,B,,210,-220,-220,,210,,,,,,210,110
9,Open,Raw,M,Oliver Hirschmann,1980,105.2,Germany,B,,200,-210,-210,,200,,,,,,200,110
DQ,Open,Raw,M,Jindřich Dressler,1977,108.2,Czechia,B,,-210,-210,-220,,,,,,,,,110
DQ,Open,Raw,M,Dmitry Tenetko,1975,109.2,Russia,B,,-245,-245,-245,,,,,,,,,110
1,Open,Raw,M,Stanislav Kolachev,1987,117.9,Russia,B,,-245,245,-250,,245,,,,,,245,125
2,Open,Raw,M,John Draher,1976,119.6,USA,B,,227.5,232.5,-247.5,,232.5,,,,,,232.5,125
3,Open,Raw,M,Nikolay Boykov,1969,120.1,Russia,B,,220,225,230,,230,,,,,,230,125
4,Open,Raw,M,Vladimir Golubev,1986,119.9,Kazakhstan,B,,215,225,-235,,225,,,,,,225,125
5,Open,Raw,M,Dmitro Voronin,1980,124.1,Ukraine,B,,205,-217.5,217.5,,217.5,,,,,,217.5,125
6,Open,Raw,M,Péter Kerecsényi,1979,116.3,Hungary,B,,202.5,210,-217.5,,210,,,,,,210,125
7,Open,Raw,M,Pavlo Kutsyi,1974,114.1,Ukraine,B,,-200,-200,200,,200,,,,,,200,125
8,Open,Raw,M,Mickael Dupire,1974,118.1,France,B,,200,-210,-210,,200,,,,,,200,125
9,Open,Raw,M,Viktor Klimov,1975,113.2,Russia,B,,190,-197.5,-200,,190,,,,,,190,125
10,Open,Raw,M,Jeroem Pol,1986,114.4,Netherlands,B,,170,175,-180,,175,,,,,,175,125
DQ,Open,Raw,M,Sergei Rudikov,1973,115,Israel,B,,-210,-210,,,,,,,,,,125
DQ,Open,Raw,M,Michail Nikolaev,1961,122.7,Russia,B,,-220,-220,-220,,,,,,,,,125
DQ,Open,Raw,M,Yury Babakov,1979,123.4,Russia,B,,-210,-210,-210,,,,,,,,,125
1,Open,Raw,M,László Mészáros,1968,128.4,Hungary,B,,280,290,303,,303,,,,,,303,140
2,Open,Raw,M,Adam Švehla,1981,134.3,Czechia,B,,220,-225,-225,,220,,,,,,220,140
DQ,Open,Raw,M,Paul Fury,1976,136.5,Canada,B,,-230,-230,,,,,,,,,,140
1,Open,Raw,M,Andrejs Mūrnieks,1980,144.7,Latvia,B,,280,-290,-290,,280,,,,,,280,140+
2,Open,Raw,M,Savic Rade,1984,150.5,Serbia,B,,280,-285,-285,,280,,,,,,280,140+
3,Open,Raw,M,Rikard Erlandson,1977,153.9,Sweden,B,,230,-240,240,,240,,,,,,240,140+
4,Open,Raw,M,Denis Bondorenko,1976,143.9,Israel,B,,212.5,220,230,,230,,,,,,230,140+
5,Open,Raw,M,Sergey Rubtsov,1964,170.5,Kazakhstan,B,,175,,,,175,,,,,,175,140+
1,M1,Raw,M,Aigars Skrebeļs,1971,74.4,Latvia,B,,135,145,,,145,,,,,,145,75
1,M1,Raw,M,Sergey Koshkin,1971,81.6,Russia,B,,218.5,222.5,-227.5,,222.5,,,,,,222.5,82.5
2,M1,Raw,M,David Perroud,1969,81.5,France,B,,-120,-120,120,,120,,,,,,120,82.5
1,M1,Raw,M,Kostantin Lapin,1973,89.6,Kazakhstan,B,,170,180,-185,,180,,,,,,180,90
2,M1,Raw,M,Sergejs Mahsumovs,1970,90,Latvia,B,,160,-170,170,,170,,,,,,170,90
3,M1,Raw,M,Baatarjav Khishigtogtokh,1971,86.4,Mongolia,B,,150,-157.5,-157.5,,150,,,,,,150,90
4,M1,Raw,M,Vladislav Kalinichev,1970,87.6,Russia,B,,-145,-145,147.5,,147.5,,,,,,147.5,90
5,M1,Raw,M,Erdemebayar Magmadorj,1968,85.3,Mongolia,B,,130,142.5,-147.5,,142.5,,,,,,142.5,90
1,M1,Raw,M,Iakov Berman,1972,99.9,Russia,B,,190,200,-205,,200,,,,,,200,100
2,M1,Raw,M,Imrich Klacso,1970,98,Slovakia,B,,-185,185,-200,,185,,,,,,185,100
3,M1,Raw,M,Philippe Jarnetin,1972,98.6,France,B,,165,172.5,175,,175,,,,,,175,100
DQ,M1,Raw,M,Jargalsaikhan Sosorbaram,1970,95.1,Mongolia,B,,,,,,,,,,,,,100
1,M1,Raw,M,Artur Rejek,1972,107.9,Poland,B,,230,235,237.5,-242.5,237.5,,,,,,237.5,110
2,M1,Raw,M,Vladimir Varaksin,1972,107.7,Russia,B,,162.5,167.5,175,,175,,,,,,175,110
1,M1,Raw,M,Nikolay Boykov,1969,120.1,Russia,B,,220,225,230,,230,,,,,,230,125
2,M1,Raw,M,Dmitry Bubnov,1973,120.2,Russia,B,,215,225,230,,230,,,,,,230,125
3,M1,Raw,M,Mariks Daugavets,1971,122.6,Latvia,B,,220,227.5,-232.5,,227.5,,,,,,227.5,125
4,M1,Raw,M,Yuriy Zakharov,1972,124.8,Kazakhstan,B,,205,212.5,217.5,,217.5,,,,,,217.5,125
5,M1,Raw,M,Sergei Rudikov,1973,115,Israel,B,,195,205,-212.5,,205,,,,,,205,125
6,M1,Raw,M,Jan Hubay,1971,119.9,Slovakia,B,,150,-160,160,,160,,,,,,160,125
1,M1,Raw,M,Erik Susztay,1972,128.2,Slovakia,B,,-207.5,215,222.5,,222.5,,,,,,222.5,140
2,M1,Raw,M,Igor Pober,1968,132.8,Ukraine,B,,-220,-220,220,,220,,,,,,220,140
3,M1,Raw,M,Alexey Brazhkin,1971,131,Russia,B,,165,180,-190,,180,,,,,,180,140
1,M1,Raw,M,Viktor Kochmar,1970,145.8,Ukraine,B,,215,220,,,220,,,,,,220,140+
2,M1,Raw,M,Szábo János Ozor,1972,150,Hungary,B,,185,200,210,,210,,,,,,210,140+
3,M1,Raw,M,Jan Vítek,1971,141.4,Czechia,B,,170,175,180,,180,,,,,,180,140+
1,M2,Raw,M,Alexandr Rabinovich,1967,73.3,Israel,B,,155,162.5,-170,,162.5,,,,,,162.5,75
2,M2,Raw,M,Pedro Claro,1965,74.3,Portugal,B,,120,125,127.5,,127.5,,,,,,127.5,75
3,M2,Raw,M,Pascal Costa,1967,74.6,France,B,,120,125,-127.5,,125,,,,,,125,75
1,M2,Raw,M,Michael Krause,1968,81.9,Canada,B,,177.5,185,-193.5,,185,,,,,,185,82.5
1,M2,Raw,M,Alexander Fedorov,1968,89.8,Russia,B,,175,-185,-185,,175,,,,,,175,90
2,M2,Raw,M,Tilo Kupper,1964,87.6,Switzerland,B,,155,162.5,-165,,162.5,,,,,,162.5,90
3,M2,Raw,M,Igor Moroz,1965,84.9,Russia,B,,150,-160,160,,160,,,,,,160,90
1,M2,Raw,M,Igor Sergeev,1966,97.9,Russia,B,,215,225,230,-233,230,,,,,,230,100
2,M2,Raw,M,Sergejs Vinogradovs,1965,95.8,Latvia,B,,145,150,155,,155,,,,,,155,100
3,M2,Raw,M,Michal Berezňák,1963,98.2,Slovakia,B,,120,-135,,,120,,,,,,120,100
1,M2,Raw,M,Libor Bažant,1964,106.7,Czechia,B,,155,-160,-160,,155,,,,,,155,110
2,M2,Raw,M,Karl Schrabauer,1967,106.7,Austria,B,,135,-150,-155,,135,,,,,,135,110
DQ,M2,Raw,M,Karol Repiský,1964,110,Slovakia,B,,-160,-160,-160,,,,,,,,,110
1,M2,Raw,M,Ján Orosz,1964,123.6,Slovakia,B,,215,-225,225,-231.5,225,,,,,,225,125
2,M2,Raw,M,Timo Juhani Majuri,1967,120,Estonia,B,,200,210,220,231,220,,,,,,220,125
3,M2,Raw,M,Billy Haavisto,1965,120.1,Finland,B,,175,190,200,,200,,,,,,200,125
1,M2,Raw,M,Péter Szabó,1964,125.8,Slovakia,B,,160,167.5,-170,,167.5,,,,,,167.5,140
1,M2,Raw,M,Sergey Rubtsov,1964,170.5,Kazakhstan,B,,175,,,,175,,,,,,175,140+
1,M3,Raw,M,Alexiander Romanytchen,1963,55.7,Israel,B,,100,105,107.5,,107.5,,,,,,107.5,56
1,M3,Raw,M,Philippe Herzog,1961,65.7,Switzerland,B,,145,150,155,,155,,,,,,155,67.5
2,M3,Raw,M,Anatoly Nefëdov,1963,67.3,Russia,B,,120,130,140,,140,,,,,,140,67.5
1,M3,Raw,M,Claude Patout,1962,81,France,B,,-160,160,-165,,160,,,,,,160,82.5
2,M3,Raw,M,Jean Douliez,1959,81.5,France,B,,-125,125,-137.5,,125,,,,,,125,82.5
3,M3,Raw,M,Eglitis Aldis,1961,81.9,Latvia,B,,-110,-110,110,,110,,,,,,110,82.5
4,M3,Raw,M,Leonid Averbakh,1959,81.3,Israel,B,,-100,105,-110,,105,,,,,,105,82.5
1,M3,Raw,M,Alexander Petrov,1960,89.4,Russia,B,,185,200,205,,205,,,,,,205,90
1,M3,Raw,M,Pascal LeBlanc,1963,95.8,France,B,,135,-140,140,,140,,,,,,140,100
1,M3,Raw,M,Evgeny Stuchkov,1961,109.5,Russia,B,,180,-190,-190,,180,,,,,,180,110
1,M3,Raw,M,Michail Nikolaev,1961,122.7,Russia,B,,200,210,215,,215,,,,,,215,125
2,M3,Raw,M,Michel Krzonkalla,1963,124.7,France,B,,170,180,-187.5,,180,,,,,,180,125
3,M3,Raw,M,Vasily Chernyshenko,1963,122.6,Russia,B,,157.5,167.5,172.5,,172.5,,,,,,172.5,125
1,M3,Raw,M,Viktor Kozlov,1963,125.3,Russia,B,,200,210,215,,215,,,,,,215,140
1,M3,Raw,M,Aleksandr Kovalevskii,1963,140.8,Russia,B,,200,210,-220,,210,,,,,,210,140+
1,M4,Raw,M,Josef Gabrhel,1955,73.2,Slovakia,B,,95,100,105,,105,,,,,,105,75
1,M4,Raw,M,Hartmut Niemann,1953,79.8,Germany,B,,135,145,-152.5,,145,,,,,,145,82.5
2,M4,Raw,M,Thomas Wagner,1956,80.7,Germany,B,,107.5,112.5,-115,,112.5,,,,,,112.5,82.5
1,M4,Raw,M,Karel Schoř,1955,85.5,Czechia,B,,135,142.5,-147.5,,142.5,,,,,,142.5,90
2,M4,Raw,M,Evgeny Basov,1955,88.7,Russia,B,,135,-145,-150,,135,,,,,,135,90
3,M4,Raw,M,Milan Vezmar,1956,88.2,Serbia,B,,115,125,,,125,,,,,,125,90
1,M4,Raw,M,Vitaliy Ponomarev,1957,99.2,Russia,B,,200,207.5,212.5,-215,212.5,,,,,,212.5,100
2,M4,Raw,M,Bruce McIntyre,1957,97.6,Canada,B,,-177.5,177.5,-180,,177.5,,,,,,177.5,100
1,M4,Raw,M,Joe Smolinski,1955,108.5,USA,B,,175,185,-192.5,,185,,,,,,185,110
2,M4,Raw,M,Valeriy Akentyev,1958,104.9,Russia,B,,155,-162.5,165,,165,,,,,,165,110
3,M4,Raw,M,Joaquim Morais,1958,108,Portugal,B,,155,162.5,-167.5,,162.5,,,,,,162.5,110
4,M4,Raw,M,Juraj Dzimas,1955,105.2,Slovakia,B,,147.5,-152.5,-155,,147.5,,,,,,147.5,110
1,M4,Raw,M,Jozef Péter,1950,130.9,Slovakia,B,,175,-180,180,,180,,,,,,180,140
1,M5,Raw,M,Boris Laišin,1950,66.5,Estonia,B,,100,-105,-105,,100,,,,,,100,67.5
2,M5,Raw,M,Vladimir Sviderskiy,1951,65.3,Russia,B,,85,-90,90,,90,,,,,,90,67.5
1,M5,Raw,M,Joël Tartare,1951,72.9,France,B,,95,-101,-101,,95,,,,,,95,75
1,M5,Raw,M,Rui Faria,1951,80.8,Portugal,B,,95,-105,105,,105,,,,,,105,82.5
1,M5,Raw,M,Valerijs Legajevs,1949,89.4,Latvia,B,,135,140,-145,,140,,,,,,140,90
1,M5,Raw,M,Kurt Schoula,1952,97.8,Germany,B,,155,160,165,,165,,,,,,165,100
2,M5,Raw,M,Milivoj Gavrilov,1953,97.7,Serbia,B,,120,127.5,,,127.5,,,,,,127.5,100
1,M5,Raw,M,Josef Hakl,1950,108.3,Czechia,B,,-150,150,-165,,150,,,,,,150,110
2,M5,Raw,M,Václav Papírník,1949,104.2,Czechia,B,,110,-120,120,,120,,,,,,120,110
3,M5,Raw,M,Boris Doktorovich,1950,103.7,Israel,B,,100,110,-112.5,,110,,,,,,110,110
1,M5,Raw,M,Grachik Egozaryan,1952,116.2,Russia,B,,180,190,-202.5,,190,,,,,,190,125
1,M6,Raw,M,Andreas Vigh,1944,71.4,Switzerland,B,,85,95,-100,,95,,,,,,95,75
1,M6,Raw,M,Maamchuluun Tseveendorj,1946,81.6,Mongolia,B,,115,120,125,,125,,,,,,125,82.5
2,M6,Raw,M,Francois Victor Lambert,1946,78.8,Switzerland,B,,95,100,-102.5,,100,,,,,,100,82.5
1,M6,Raw,M,Valerijs Petrovs,1946,88.3,Latvia,B,,125,130,-135,,130,,,,,,130,90
1,M6,Raw,M,František Esser,1946,91.3,Czechia,B,,110,120,-130,,120,,,,,,120,100
1,M7,Raw,M,Jean-Claude Camicas,1943,58.4,France,B,,-80,80,82.5,,82.5,,,,,,82.5,60
1,M7,Raw,M,Evgeny Vyborov,1939,69.9,Russia,B,,80,90,-95,,90,,,,,,90,75
2,M7,Raw,M,Bayamba Tsegmed,1940,75,Mongolia,B,,-82.5,82.5,-92.5,,82.5,,,,,,82.5,75
1,M7,Raw,M,Ladislav Kollár,1943,79.4,Slovakia,B,,120,127.5,-130,,127.5,,,,,,127.5,82.5
2,M7,Raw,M,Peter Herrmann,1942,81.1,Switzerland,B,,105,110,-115,,110,,,,,,110,82.5
3,M7,Raw,M,Aleksandr Tkachuk,1940,79.8,Russia,B,,-100,-100,100,,100,,,,,,100,82.5
1,M7,Raw,M,Květoslav Štora,1940,91.2,Czechia,B,,95,-100,,,95,,,,,,95,100
1,M7,Raw,M,Evgeniy Dmitriev,1940,122.3,Russia,B,,120,130,,,130,,,,,,130,125
1,M8,Raw,M,Iosif Plagov,1935,64.3,USA,B,,85,-90,-90,,85,,,,,,85,67.5
1,M8,Raw,M,Grigori Rubin,1936,73.7,Israel,B,,90,95,-97.5,,95,,,,,,95,75
1,M8,Raw,M,Gerd Meyerhofer,1938,77.7,Germany,B,,60,65,-67.5,,65,,,,,,65,82.5
1,M9,Raw,M,Paul Radelat,1933,78.5,USA,B,,-72.5,78.5,-86,,78.5,,,,,,78.5,82.5
1,Juniors,Multi-ply,F,Otgontyqa Gongor,1991,66,Mongolia,D,,,,,,,190,200,,,200,200,67.5
1,Open,Multi-ply,F,Maria Kalanina,1982,74.9,Russia,D,,,,,,,185,195,205,,205,205,75
1,T1,Multi-ply,M,Tomass Chiapas,2000,79.9,Latvia,D,,,,,,,140,150,-160,,150,150,82.5
1,Juniors,Multi-ply,M,Kalle Räsänen,1990,90.3,Finland,D,,,,,,,290,310,,,310,310,100
2,Juniors,Multi-ply,M,Jan Sedláček,1991,99.4,Czechia,D,,,,,,,200,220,-237.5,,220,220,100
1,Juniors,Multi-ply,M,Rhys Browning,1990,104.4,UK,D,,,,,,,315,-325.5,,,315,315,110
DQ,Open,Multi-ply,M,Ruslan Kulebyakin,1991,105.8,Russia,D,,,,,,,,,,,,,110
1,Open,Multi-ply,M,Rustam Musayev,1978,74.4,Azerbaijan,D,,,,,,,230,240,242.5,,242.5,242.5,75
2,Open,Multi-ply,M,Nikolai Altunin,1977,72.9,Russia,D,,,,,,,200,220,240,245,240,240,75
1,Open,Multi-ply,M,Andriy Dyatlov,1985,82.1,Ukraine,D,,,,,,,240,,,,240,240,82.5
1,Open,Multi-ply,M,Serhii Sokolovskyi,1976,88.5,Ukraine,D,,,,,,,280,300,-320,,300,300,90
1,Open,Multi-ply,M,Tamás Molnár,1975,98.9,Hungary,D,,,,,,,-287.5,312.5,-320,,312.5,312.5,100
2,Open,Multi-ply,M,Kalle Räsänen,1990,90.3,Finland,D,,,,,,,290,310,,,310,310,100
3,Open,Multi-ply,M,Yuriy Ustinov,1975,92.6,Russia,D,,,,,,,270,285,,,285,285,100
4,Open,Multi-ply,M,Petr Maceášik,1975,99.8,Czechia,D,,,,,,,250,280,-300,,280,280,100
DQ,Open,Multi-ply,M,Delger-Khishig Banzragch,1980,96.6,Mongolia,D,,,,,,,-285,-285,,,,,100
1,Open,Multi-ply,M,Ivars Cīrulis,1979,107.6,Latvia,D,,,,,,,330,350,-370,,350,350,110
2,Open,Multi-ply,M,Tsogzoldorjm Dondog,1974,106.7,Mongolia,D,,,,,,,280,295,-305,,295,295,110
3,Open,Multi-ply,M,Miroslav Klus,1984,100.3,Czechia,D,,,,,,,230,-245,245,,245,245,110
1,Open,Multi-ply,M,Vladimír Jeřábek,1989,120,Czechia,D,,,,,,,300,320,340,,340,340,125
2,Open,Multi-ply,M,Alekseim Kuchma,1979,113.5,Russia,D,,,,,,,290,310,-325,,310,310,125
3,Open,Multi-ply,M,Mihkail Grinko,1978,111.5,Russia,D,,,,,,,270,290,-300,,290,290,125
4,Open,Multi-ply,M,Sergey Starodubskiy,1977,113.2,Russia,D,,,,,,,290,-315,-315,,290,290,125
DQ,Open,Multi-ply,M,Tilyeubyerd Saifolla,1987,112,Mongolia,D,,,,,,,-275,-275,-292.5,,,,125
1,Open,Multi-ply,M,Denis Makeev,1983,132.7,Russia,D,,,,,,,275,300,-315,,300,300,140
1,M1,Multi-ply,M,José Teixeira,1970,97.9,Portugal,D,,,,,,,280,290,300,,300,300,100
2,M1,Multi-ply,M,Alejanndro Ortiy,1969,90.4,USA,D,,,,,,,227.5,250,-272.5,,250,250,100
1,M2,Multi-ply,M,Václav Mareš,1968,109.3,Czechia,D,,,,,,,-250,260,-280,,260,260,110
DQ,M2,Multi-ply,M,Oleg Korotaev,1965,109.2,Russia,D,,,,,,,-200,,,,,,110
1,M2,Multi-ply,M,Ano Turtiainen,1967,129.1,Finland,D,,,,,,,325,-365,-365,,325,325,140
1,M3,Multi-ply,M,Vadim Zaitsev,1960,94.1,Russia,D,,,,,,,240,250,,,250,250,100
1,M4,Multi-ply,M,Haus-Jürgen Kaule,1954,74.3,Germany,D,,,,,,,210,230,240,,240,240,75
1,M5,Multi-ply,M,Alexander Ponedelin,1950,73.5,Russia,D,,,,,,,215,230,-237.5,,230,230,75
DQ,Juniors,Raw,F,Daria Kremen,1989,64.6,Russia,D,,,,,,,-160.5,-160.5,-160.5,,,,67.5
1,Open,Raw,F,Gyongyi Balogh,1984,47.1,Hungary,D,,,,,,,100,110,-112.5,,110,110,52
1,Open,Raw,F,Emmy Louise,1983,51.5,UK,D,,,,,,,135,151,-160,,151,151,52
DQ,Open,Raw,F,Nikhita Kumar,1989,51.3,UK,D,,,,,,,-105,-105,-105,,,,52
1,Open,Raw,F,Monique Newton,1992,55.4,UK,D,,,,,,,125,135,-142.5,,135,135,56
1,Open,Raw,F,Davaa Tumuruu,1980,58.9,Mongolia,D,,,,,,,100,110,120,,120,120,60
2,Open,Raw,F,Alina Arakelova,1981,58.6,Russia,D,,,,,,,60,65,70,,70,70,60
1,Open,Raw,F,Mariya Yastrebova,1988,63.9,Kazakhstan,D,,,,,,,135,145,162.5,,162.5,162.5,67.5
2,Open,Raw,F,Sara Abbasova,1983,65.9,Azerbaijan,D,,,,,,,120,130,-140,,130,130,67.5
DQ,Open,Raw,F,Sarah Edgar,1977,63,UK,D,,,,,,,-165,,,,,,67.5
1,Open,Raw,F,Cindy Costin-Fury,1982,86.9,Canada,D,,,,,,,110,127.5,-137.5,,127.5,127.5,90
1,Open,Raw,F,Crystal Lahaie,1976,96.6,Canada,D,,,,,,,-142.5,142.5,150,-157.5,150,150,90+
1,M1,Raw,F,Emma Ylitalo-James,1969,87.9,UK,D,,,,,,,190,202.5,-207.5,,202.5,202.5,90
1,T2,Raw,M,Sebastian Schindecker,1996,98.6,Germany,D,,,,,,,210,220,,,220,220,100
1,Juniors,Raw,M,Byerdmurat Avdalkhamid,1992,74.2,Mongolia,D,,,,,,,245,-255,-255,,245,245,75
2,Juniors,Raw,M,Dominik Márton,1990,75,Hungary,D,,,,,,,200,205,-220,,205,205,75
1,Juniors,Raw,M,Jamal Mammadov,1991,82,Azerbaijan,D,,,,,,,150,180,200,,200,200,82.5
1,Juniors,Raw,M,Richard Novotný,1993,88.8,Czechia,D,,,,,,,240,265,-272.5,,265,265,90
1,Juniors,Raw,M,Gábor Novakovics,1989,96.5,Hungary,D,,,,,,,-270,270,-280,,270,270,100
2,Juniors,Raw,M,Alexander Smirnov,1992,93.9,Russia,D,,,,,,,200,240,,,240,240,100
1,Juniors,Raw,M,Rhys Browning,1990,104.4,UK,D,,,,,,,280,295,-310,,295,295,110
2,Juniors,Raw,M,Ruslan Kulebyakin,1991,105.8,Russia,D,,,,,,,240,250,260,,260,260,110
1,Juniors,Raw,M,Ondřej Kiml,1990,114,Czechia,D,,,,,,,240,260,-285,,260,260,125
1,Open,Raw,M,Andrei Kim,1986,61.3,Kazakhstan,D,,,,,,,185,200,,,200,200,67.5
1,Open,Raw,M,Karel Sazma,1975,72.5,Czechia,D,,,,,,,220,230,235,,235,235,75
1,Open,Raw,M,Khachaturyan Armen,1978,82.5,Russia,D,,,,,,,170,185,190,,190,190,82.5
1,Open,Raw,M,Gunduz Mammadov,1983,90,Azerbaijan,D,,,,,,,200,250,,,250,250,90
1,Open,Raw,M,Krasimir Krachunov,1985,99.3,Bulgaria,D,,,,,,,295,315,326,,326,326,100
2,Open,Raw,M,Tamás Molnár,1975,98.9,Hungary,D,,,,,,,300,315,-325.5,,315,315,100
3,Open,Raw,M,Petr Maceášik,1975,99.8,Czechia,D,,,,,,,280,-300,-300,,280,280,100
4,Open,Raw,M,Orkhan Ahmadzada,1988,98.2,Azerbaijan,D,,,,,,,260,-270,-280,,260,260,100
1,Open,Raw,M,Stoyan Andreev,1978,109.7,Bulgaria,D,,,,,,,340,365.5,-380,,365.5,365.5,110
2,Open,Raw,M,Harri Peltomaa,1983,104.5,Finland,D,,,,,,,325,-345,-345,,325,325,110
3,Open,Raw,M,Petr Folprecht,1985,106.3,Czechia,D,,,,,,,290,300,,,300,300,110
4,Open,Raw,M,Alexander Teterin,1974,107.3,Russia,D,,,,,,,250,260,-265,,260,260,110
1,Open,Raw,M,Bakhtiyar Guliyev,1975,114.3,Azerbaijan,D,,,,,,,325,342.5,-360,,342.5,342.5,125
2,Open,Raw,M,Dallas Hogan,1976,121.4,Canada,D,,,,,,,-342.5,342.5,-350,,342.5,342.5,125
3,Open,Raw,M,Vladimir Golubev,1986,120.5,Kazakhstan,D,,,,,,,280,305,310,,310,310,125
4,Open,Raw,M,Yevgeniy Borissov,1971,116.8,Kazakhstan,D,,,,,,,280,302.5,305,,305,305,125
5,Open,Raw,M,Mihkail Grinko,1978,111.5,Russia,D,,,,,,,270,-300,,,270,270,125
1,Open,Raw,M,Yuriy Zakharov,1972,126.3,Kazakhstan,D,,,,,,,260,280,290,,290,290,140
2,Open,Raw,M,Paul Fury,1976,134.9,Canada,D,,,,,,,200,250,275,-300,275,275,140
1,Open,Raw,M,Sergey Tymchenko,1970,151.3,Kazakhstan,D,,,,,,,250,-270,-270,,250,250,140+
1,M1,Raw,M,Khishigtogtokh Baatarjav,1971,86.5,Mongolia,D,,,,,,,170,190,-200,,190,190,90
1,M1,Raw,M,Bahram Abadi Reza Zare,1972,91.5,Iran,D,,,,,,,230,270,-300,,270,270,100
2,M1,Raw,M,Jargalsaikhan Sosorbaram,1970,93.3,Mongolia,D,,,,,,,-180,180,,,180,180,100
1,M1,Raw,M,Yevgeniy Borissov,1971,116.8,Kazakhstan,D,,,,,,,280,302.5,305,,305,305,125
1,M1,Raw,M,Yuriy Zakharov,1972,126.3,Kazakhstan,D,,,,,,,260,280,290,,290,290,140
1,M1,Raw,M,Sergey Tymchenko,1970,151.3,Kazakhstan,D,,,,,,,250,-270,-270,,250,250,140+
1,M2,Raw,M,László Kupcsik,1967,82.5,Hungary,D,,,,,,,210,230,247.5,,247.5,247.5,82.5
1,M2,Raw,M,Václav Mareš,1968,109.3,Czechia,D,,,,,,,240,260,,,260,260,110
DQ,M2,Raw,M,Oleg Korotaev,1965,109.2,Russia,D,,,,,,,-200,,,,,,110
1,M2,Raw,M,Sergey Rubstov,1964,172,Kazakhstan,D,,,,,,,175,,,,175,175,140+
1,M3,Raw,M,Vadim Zaitsev,1960,94.1,Russia,D,,,,,,,240,250,,,250,250,100
1,M4,Raw,M,Dainis Polis,1959,116.5,Latvia,D,,,,,,,220,230,250,,250,250,125
1,M4,Raw,M,Aleksandr Tcvetkov,1957,89.5,Russia,D,,,,,,,220,237.5,247.5,,247.5,247.5,90
2,M4,Raw,M,Karel Schoř,1955,86.2,Czechia,D,,,,,,,220,235,245,,245,245,90
1,M4,Raw,M,Joaquim Morais,1958,113.3,Portugal,D,,,,,,,200,220,-230,,220,220,125
1,M5,Raw,M,Vladimir Sviderskiy,1951,65.1,Russia,D,,,,,,,135,142.5,147.5,,147.5,147.5,67.5
2,M5,Raw,M,Boris Laišin,1950,66.8,Estonia,D,,,,,,,120,130,-147.5,,130,130,67.5
1,M5,Raw,M,Rui Faria,1951,80.5,Portugal,D,,,,,,,160,180.5,-185,,180.5,180.5,82.5
1,M5,Raw,M,Vadim Grabar,1951,83,Latvia,D,,,,,,,220,250,255,,255,255,90
1,M6,Raw,M,Evgeny Khudoleev,1946,86.8,Russia,D,,,,,,,210,225,230,,230,230,90
1,M6,Raw,M,František Esser,1946,92.6,Czechia,D,,,,,,,160,175,180,190,180,180,100
DQ,M7,Raw,M,Valeriy Bystrov,1941,98.4,Russia,D,,,,,,,-195,-195,-195,,,,100
1,M8,Raw,M,Ernest Ruzin,1937,63,Israel,D,,,,,,,145,160,165,,165,165,67.5
1,Juniors,Multi-ply,F,Tánia Salgueiro,1990,55,Portugal,SBD,140,,,,,95,,,,,125,360,56
1,Juniors,Multi-ply,F,Otgontuya Gongor,1991,67,Mongolia,SBD,230,,,,,100,,,,,205,535,67.5
2,Juniors,Multi-ply,F,Stacy Jensen,1990,64.4,Canada,SBD,170.5,,,,,115,,,,,175,460.5,67.5
1,Juniors,Multi-ply,F,Liliana Duarte,1991,70.8,Portugal,SBD,155,,,,,62.5,,,,,145,362.5,75
1,Juniors,Multi-ply,F,Anna Mccloskey,1993,86.8,USA,SBD,227.5,,,,,140,,,,,215,582.5,90
1,Open,Multi-ply,F,Roza Ovechkina,1980,55.7,Russia,SBD,150,,,,,80,,,,,155,385,56
1,Open,Multi-ply,F,Davaa Tumuruu,1980,59.7,Mongolia,SBD,150,,,,,80,,,,,150,380,60
2,Open,Multi-ply,F,Světlana Veselova,1987,60,Russia,SBD,140,,,,,85,,,,,132.5,357.5,60
3,Open,Multi-ply,F,Olena Koroyeva,1983,59.1,Ukraine,SBD,130,,,,,70,,,,,127.5,327.5,60
DQ,Open,Multi-ply,F,Marianna Gasparyan,1989,60,Kazakhstan,SBD,,,,,,,,,,,,,60
1,Open,Multi-ply,F,Otgontuya Gongor,1991,67,Mongolia,SBD,230,,,,,100,,,,,205,535,67.5
1,Open,Multi-ply,F,Ichinnorov Darkhanbaatar,1989,74.9,Mongolia,SBD,250,,,,,170,,,,,180,600,75
2,Open,Multi-ply,F,Maria Kalanina,1982,74.9,Russia,SBD,205,,,,,110,,,,,202.5,517.5,75
1,Open,Multi-ply,F,Carla Carneiro,1977,80.6,Portugal,SBD,180,,,,,90,,,,,175,445,82.5
1,Open,Multi-ply,F,Anna Mccloskey,1993,86.8,USA,SBD,227.5,,,,,140,,,,,215,582.5,90
1,M1,Multi-ply,F,Katalin Kis,1970,66.6,Hungary,SBD,110,,,,,80,,,,,132.5,322.5,67.5
1,M2,Multi-ply,F,Mirmirani Vizhe,1965,60,Russia,SBD,160,,,,,100,,,,,140,400,60
1,M3,Multi-ply,F,Maria Lopes,1960,64.8,Portugal,SBD,55,,,,,40,,,,,80,175,67.5
1,M3,Multi-ply,F,Debbie Damminga,1961,72.2,USA,SBD,180,,,,,85,,,,,192.5,457.5,75
1,M5,Multi-ply,F,Jane Stabile,1952,73.2,USA,SBD,172.5,,,,,85,,,,,160,417.5,75
1,T1,Multi-ply,M,Tomass Chiapas,2000,79.1,Latvia,SBD,170,,,,,90,,,,,150,410,82.5
1,T2,Multi-ply,M,Max Reichert,1996,90.5,USA,SBD,267.5,,,,,182.5,,,,,240,690,100
1,T3,Multi-ply,M,Forrest Grivetti,1995,73.6,USA,SBD,250,,,,,167.5,,,,,212.5,630,75
1,T3,Multi-ply,M,Max Schröder,1994,85.7,Germany,SBD,260,,,,,170,,,,,272.5,702.5,90
2,T3,Multi-ply,M,Aleš Lukeš,1994,89.6,Czechia,SBD,250,,,,,155,,,,,235,640,90
1,T3,Multi-ply,M,Erik Karácsondi,1995,132,Hungary,SBD,310,,,,,250,,,,,300,860,140
1,Juniors,Multi-ply,M,Byerdmurat Avdalkhamid,1992,74.5,Mongolia,SBD,280,,,,,185,,,,,260,725,75
1,Juniors,Multi-ply,M,Jérémy Babin,1990,81.6,France,SBD,240,,,,,187.5,,,,,247.5,675,82.5
2,Juniors,Multi-ply,M,Filip Stanko,1990,81,Slovakia,SBD,250,,,,,215,,,,,207.5,672.5,82.5
DQ,Juniors,Multi-ply,M,Jack Chambers,1991,82.5,UK,SBD,,,,,,,,,,,,,82.5
1,Juniors,Multi-ply,M,Kalle Räsänen,1990,90,Finland,SBD,390,,,,,260,,,,,320,970,90
2,Juniors,Multi-ply,M,Shinebayar Rentsentsedev,1992,89.7,Mongolia,SBD,290,,,,,220,,,,,230,740,90
3,Juniors,Multi-ply,M,Fernando Santos,1991,89.9,Portugal,SBD,260,,,,,180,,,,,250,690,90
4,Juniors,Multi-ply,M,Roman Chuťka,1993,86.4,Czechia,SBD,260,,,,,135,,,,,255,650,90
5,Juniors,Multi-ply,M,Pedro Vareiro,1992,87.8,Portugal,SBD,260,,,,,142.5,,,,,230,632.5,90
6,Juniors,Multi-ply,M,Christian Hagl,1990,85.7,Germany,SBD,230,,,,,145,,,,,180,555,90
DQ,Juniors,Multi-ply,M,Dmytro Kharchenko,1991,93.6,Ukraine,SBD,,,,,,,,,,,,,100
DQ,Juniors,Multi-ply,M,Jan Sedláček,1991,99.4,Czechia,SBD,,,,,,,,,,,,,100
1,Juniors,Multi-ply,M,Ivan Morhun,1990,108,Ukraine,SBD,390,,,,,272.5,,,,,320,982.5,110
2,Juniors,Multi-ply,M,Erik Jaškanič,1992,106.5,Slovakia,SBD,310,,,,,200,,,,,350,860,110
3,Juniors,Multi-ply,M,Martin Beránek,1993,105.9,Slovakia,SBD,280,,,,,170,,,,,270,720,110
1,Juniors,Multi-ply,M,Patrik Navara,1991,114.4,Czechia,SBD,340,,,,,255,,,,,280,875,125
1,Open,Multi-ply,M,Marco Silva,1982,58.2,Portugal,SBD,180,,,,,90,,,,,185,455,60
1,Open,Multi-ply,M,Vilas Boas Paulo,1986,75,Portugal,SBD,260,,,,,160,,,,,240,660,75
1,Open,Multi-ply,M,Nikolay Sokolov,1979,74,Russia,SBD,315,,,,,200,,,,,285,800,75
2,Open,Multi-ply,M,Nikolay Altunin,1977,73.5,Russia,SBD,240,,,,,160,,,,,240,640,75
3,Open,Multi-ply,M,Anton Popov,1989,74.1,Ukraine,SBD,195,,,,,150,,,,,200,545,75
DQ,Open,Multi-ply,M,Rustam Musayev,1978,73,Azerbaijan,SBD,305,,,,,80,,,,,,,75
1,Open,Multi-ply,M,Kostiantyn Chernov,1984,81.8,Ukraine,SBD,310,,,,,260,,,,,265,835,82.5
2,Open,Multi-ply,M,Stanislav Pryakhin,1975,81.6,Russia,SBD,325,,,,,215,,,,,280,820,82.5
3,Open,Multi-ply,M,Vasily Tsvetkov,1981,79,Russia,SBD,325,,,,,215,,,,,270,810,82.5
4,Open,Multi-ply,M,Adriy Dyatlov,1985,82.2,Ukraine,SBD,310,,,,,210,,,,,280,800,82.5
5,Open,Multi-ply,M,Ramil Ahmadov,1988,81.9,Azerbaijan,SBD,315,,,,,180,,,,,275,770,82.5
1,Open,Multi-ply,M,Maxim Piskunov,1982,88.4,Russia,SBD,375,,,,,250,,,,,317.5,942.5,90
2,Open,Multi-ply,M,Vladimir Zhabin,1980,89,Russia,SBD,340,,,,,235,,,,,333,908,90
3,Open,Multi-ply,M,Kyrylo Ostapishin,1985,87,Ukraine,SBD,315,,,,,222.5,,,,,270,807.5,90
DQ,Open,Multi-ply,M,Scott Kuderick,1974,89.7,USA,SBD,,,,,,,,,,,,,90
DQ,Open,Multi-ply,M,Jack Chambers,1992,89.8,UK,SBD,250,,,,,170,,,,,,,90
1,Open,Multi-ply,M,Alexey Kozlov,1970,99.8,Russia,SBD,360,,,,,230,,,,,320,910,100
2,Open,Multi-ply,M,Delger-Khishig Banzragch,1980,97.1,Mongolia,SBD,385,,,,,190,,,,,285,860,100
3,Open,Multi-ply,M,Lukáš Jiruška,1983,98.6,Czechia,SBD,305,,,,,227.5,,,,,260,792.5,100
4,Open,Multi-ply,M,Hassan Zaid,1987,94.9,UK,SBD,310,,,,,180,,,,,300,790,100
5,Open,Multi-ply,M,Paulo Santos #1,1988,95.7,Portugal,SBD,280,,,,,200,,,,,290,770,100
6,Open,Multi-ply,M,András Gadó,1987,97.5,Hungary,SBD,310,,,,,202.5,,,,,257.5,770,100
7,Open,Multi-ply,M,Emin Mamedov,1974,99.6,Russia,SBD,200,,,,,330,,,,,220,750,100
DQ,Open,Multi-ply,M,Dmitro Derevianko,1984,95.1,Ukraine,SBD,,,,,,,,,,,,,100
DQ,Open,Multi-ply,M,Jaromír Kratochvíl,1978,97.3,Czechia,SBD,,,,,,,,,,,,,100
DQ,Open,Multi-ply,M,Kai-Oskari Lehtinen,1989,99,Finland,SBD,,,,,,,,,,,,,100
DQ,Open,Multi-ply,M,Matt Minuth,1980,99,USA,SBD,400,,,,,,,,,,,,100
DQ,Open,Multi-ply,M,Petr Myšák,1981,99.6,Czechia,SBD,,,,,,,,,,,,,100
1,Open,Multi-ply,M,Dimitrii Loginov,1989,109.1,Russia,SBD,340,,,,,235,,,,,360,935,110
2,Open,Multi-ply,M,Sergey Starodubskiy,1977,110,Russia,SBD,350,,,,,270,,,,,285,905,110
3,Open,Multi-ply,M,Samir Salimkhanov,1988,108.2,Azerbaijan,SBD,332.5,,,,,230,,,,,317.5,880,110
4,Open,Multi-ply,M,Saifolla Tilyeubyerd,1987,108.3,Mongolia,SBD,365,,,,,240,,,,,275,880,110
5,Open,Multi-ply,M,Jan Jíša,1988,103.4,Czechia,SBD,300,,,,,220,,,,,285,805,110
6,Open,Multi-ply,M,Filipe Lavandeira,1983,102,Portugal,SBD,325,,,,,200,,,,,260,785,110
7,Open,Multi-ply,M,Tsogzoldorj Dondog,1974,107,Mongolia,SBD,330,,,,,170,,,,,270,770,110
1,Open,Multi-ply,M,Rufat Aghayev,1975,123.3,Azerbaijan,SBD,500,,,,,285,,,,,365,1150,125
2,Open,Multi-ply,M,Volodimir Rozganskyi,1980,115.1,Ukraine,SBD,390,,,,,250,,,,,340,980,125
3,Open,Multi-ply,M,Atis Zembahs,1988,111.8,Latvia,SBD,360,,,,,230,,,,,325,915,125
4,Open,Multi-ply,M,Steve Macneil,1984,121.5,UK,SBD,360,,,,,260,,,,,270,890,125
DQ,Open,Multi-ply,M,Andis Kaspars,1976,112,Latvia,SBD,,,,,,,,,,,,,125
DQ,Open,Multi-ply,M,Alexey Kuchma,1979,113.5,Russia,SBD,,,,,,,,,,,,,125
DQ,Open,Multi-ply,M,Kalle Ylitalo,1983,115.8,Finland,SBD,200,,,,,,,,,,,,125
DQ,Open,Multi-ply,M,Petteri Hosio,1979,117.1,Finland,SBD,,,,,,,,,,,,,125
DQ,Open,Multi-ply,M,Markku Niemelä,1984,124.9,Finland,SBD,,,,,,,,,,,,,125
1,Open,Multi-ply,M,Mamaghani Bahman Halimi,1984,125.1,Iran,SBD,380,,,,,265,,,,,310,955,140
2,Open,Multi-ply,M,Chuluudai Bayasgalan,1977,126.1,Mongolia,SBD,372.5,,,,,240,,,,,240,852.5,140
DQ,Open,Multi-ply,M,Sandro Eusébio,1975,127.5,Portugal,SBD,,,,,,,,,,,,,140
DQ,Open,Multi-ply,M,Darran Keneddy,1988,137.3,Ireland,SBD,,,,,,,,,,,,,140
1,Open,Multi-ply,M,Amir Tavakoli,1983,150.4,Iran,SBD,450,,,,,260,,,,,340,1050,140+
2,Open,Multi-ply,M,Kari Kalliola,1963,168.2,Finland,SBD,425,,,,,310,,,,,265,1000,140+
1,M1,Multi-ply,M,Sergey Emelianov,1971,79.3,Russia,SBD,230,,,,,165,,,,,220,615,82.5
1,M1,Multi-ply,M,Eric Athias,1971,86.6,France,SBD,320,,,,,222.5,,,,,310,852.5,90
2,M1,Multi-ply,M,Reza Zare Bahram Abadi,1972,89.4,Iran,SBD,340,,,,,200,,,,,300,840,90
DQ,M1,Multi-ply,M,Alex Ortiz,1969,89.4,USA,SBD,,,,,,,,,,,,,90
1,M1,Multi-ply,M,Alexey Kozlov,1970,99.8,Russia,SBD,360,,,,,230,,,,,320,910,100
2,M1,Multi-ply,M,Jargalsaikhan Sosorbaram,1970,94.1,Mongolia,SBD,275,,,,,175,,,,,222.5,672.5,100
3,M1,Multi-ply,M,Pedro Madureira,1969,99.5,Portugal,SBD,270,,,,,130,,,,,230,630,100
DQ,M1,Multi-ply,M,Tony Giddings,1972,106.2,UK,SBD,300,,,,,,,,,,,,110
DQ,M1,Multi-ply,M,Tony Chirico,1970,109.7,USA,SBD,390,,,,,,,,,,,,110
1,M2,Multi-ply,M,Valery Tomilov,1965,89.7,Israel,SBD,300,,,,,220,,,,,260,780,90
1,M2,Multi-ply,M,Konstantin Kiselev,1965,95.9,Russia,SBD,265,,,,,200,,,,,245,710,100
1,M2,Multi-ply,M,Mike Towers,1966,106,UK,SBD,285,,,,,175,,,,,265,725,110
2,M2,Multi-ply,M,Sergey Mavrenkov,1966,103,Russia,SBD,260,,,,,210,,,,,252.5,722.5,110
DQ,M2,Multi-ply,M,Kjell Nyhagebråten,1966,108,Norway,SBD,,,,,,,,,,,,,110
1,M2,Multi-ply,M,Tony Chard,1968,120.8,France,SBD,255,,,,,195,,,,,305,755,125
1,M3,Multi-ply,M,Gary Reichert,1960,67.1,USA,SBD,225,,,,,140,,,,,235,600,67.5
1,M3,Multi-ply,M,Lothar Pritzl,1959,89.7,Germany,SBD,230,,,,,160,,,,,190,580,90
2,M3,Multi-ply,M,Bryan Walter,1960,84.3,USA,SBD,215,,,,,140,,,,,190,545,90
1,M3,Multi-ply,M,Alexander Krovikov,1961,97.9,Russia,SBD,220,,,,,175,,,,,260,655,100
1,M3,Multi-ply,M,Oleg Holodov,1961,104.5,Russia,SBD,240,,,,,175,,,,,200,615,110
1,M3,Multi-ply,M,Rocky Tilson,1962,116.2,USA,SBD,185,,,,,140,,,,,185,510,125
DQ,M3,Multi-ply,M,Gregg Damminga,1962,124.1,USA,SBD,,,,,,,,,,,,,125
1,M3,Multi-ply,M,Zdeněk Trnka,1963,135.5,Czechia,SBD,260,,,,,150,,,,,270,680,140
1,M5,Multi-ply,M,Alexander Ponedelin,1950,72.3,Russia,SBD,230,,,,,100,,,,,227.5,557.5,75
1,M5,Multi-ply,M,Vadim Grabar,1951,82.2,Latvia,SBD,210,,,,,125,,,,,250,585,82.5
1,M5,Multi-ply,M,Dick Zenzen,1952,109.1,USA,SBD,292.5,,,,,165,,,,,215,672.5,110
1,M6,Multi-ply,M,Maamchuluun Tseveendorj,1946,81.7,Mongolia,SBD,220,,,,,140,,,,,210,570,82.5
1,M6,Multi-ply,M,František Esser,1946,92.6,Czechia,SBD,140,,,,,125,,,,,200,465,100
1,M7,Multi-ply,M,Tsegmed Byambaa,1940,75,Mongolia,SBD,215,,,,,97.5,,,,,180,492.5,75
1,M7,Multi-ply,M,Yuriy Chepets,1943,78.8,Russia,SBD,210,,,,,150,,,,,200,560,82.5
DQ,M8,Multi-ply,M,Grigori Rubin,1936,73.7,Israel,SBD,,,,,,,,,,,,,75
DQ,M9,Multi-ply,M,Csaba Keszthelyi,1933,77.8,Hungary,SBD,115,,,,,,,,,,,,82.5
1,T1,Wraps,F,Claire Perroud,2000,43.9,France,SBD,47.5,,,,,25,,,,,65,137.5,52
1,T1,Wraps,F,Elina Ponamareva,1998,58.3,Kazakhstan,SBD,75,,,,,35,,,,,100,210,60
1,T2,Wraps,F,Laresce Browne,1997,50.2,UK,SBD,81,,,,,51,,,,,105,237,52
1,T2,Wraps,F,Amelia Kingshott,1997,64.8,UK,SBD,80,,,,,40,,,,,130,250,67.5
1,T3,Wraps,F,Kaytee Poolton,1994,50.6,UK,SBD,105,,,,,55,,,,,127.5,287.5,52
1,Juniors,Wraps,F,Cheryl Kelsall,1990,51.5,UK,SBD,80,,,,,57.5,,,,,145,282.5,52
1,Juniors,Wraps,F,Michaela Schneiderová,1989,59.7,Czechia,SBD,80,,,,,47.5,,,,,117.5,245,60
1,Juniors,Wraps,F,Otgontuya Gongor,1991,66,Mongolia,SBD,152.5,,,,,82.5,,,,,160,395,67.5
2,Juniors,Wraps,F,Daria Kremen,1989,64.6,Russia,SBD,112.5,,,,,60,,,,,157.5,330,67.5
1,Juniors,Wraps,F,Precious Collins,1991,82.3,UK,SBD,135,,,,,72.5,,,,,155,362.5,82.5
1,Juniors,Wraps,F,Anna Mccloskey,1993,86.1,USA,SBD,167.5,,,,,90,,,,,202.5,460,90
1,Open,Wraps,F,Irina Pomerantsev,1970,43,Israel,SBD,77.5,,,,,62.5,,,,,100,240,52
1,Open,Wraps,F,Olga Mikhailova,1971,51.7,Russia,SBD,112.5,,,,,67.5,,,,,165,345,52
2,Open,Wraps,F,Emmy Louise,1983,51.5,UK,SBD,100,,,,,70,,,,,150,320,52
3,Open,Wraps,F,Leah Gitterman,1978,51.3,Canada,SBD,102.5,,,,,55,,,,,135,292.5,52
1,Open,Wraps,F,Gunel Talibova,1982,53.3,Azerbaijan,SBD,137.5,,,,,87.5,,,,,190,415,56
2,Open,Wraps,F,Marina Lemenovskaya,1985,54.1,Russia,SBD,112.5,,,,,95,,,,,150,357.5,56
3,Open,Wraps,F,Martine Geroge,1983,56,UK,SBD,95,,,,,50,,,,,120,265,56
4,Open,Wraps,F,Veronika Strolená,1985,55.3,Czechia,SBD,87.5,,,,,45,,,,,120,252.5,56
5,Open,Wraps,F,Irina Shiryaeva,1985,55.2,Russia,SBD,62.5,,,,,42.5,,,,,85,190,56
1,Open,Wraps,F,Marianna Gasparyan,1989,,Kazakhstan,SBD,170,,,,,90,,,,,170,430,
2,Open,Wraps,F,Irena Ignatovich,1982,56.9,Russia,SBD,137.5,,,,,85,,,,,150,372.5,60
3,Open,Wraps,F,Davaa Tumuruu,1980,58.9,Mongolia,SBD,115,,,,,72.5,,,,,130,317.5,60
4,Open,Wraps,F,Mojca Virant,1980,58.5,Slovenia,SBD,105,,,,,60,,,,,125,290,60
5,Open,Wraps,F,Ksenia Gunina,1986,59.9,Russia,SBD,65,,,,,45,,,,,82.5,192.5,60
1,Open,Wraps,F,Sarah Edgar,1977,63,UK,SBD,152.5,,,,,92.5,,,,,180,425,67.5
2,Open,Wraps,F,Otgontuya Gongor,1991,66,Mongolia,SBD,152.5,,,,,82.5,,,,,160,395,67.5
3,Open,Wraps,F,Elena Šimová,1978,64.2,Slovakia,SBD,137.5,,,,,80,,,,,162.5,380,67.5
4,Open,Wraps,F,Mariya Yastrebova,1988,63.8,Kazakhstan,SBD,115,,,,,85,,,,,155,355,67.5
5,Open,Wraps,F,Sara Abbasova,1983,65.9,Azerbaijan,SBD,120,,,,,70,,,,,140,330,67.5
6,Open,Wraps,F,Dora Lontro,1987,67.5,Portugal,SBD,105,,,,,60,,,,,130,295,67.5
DQ,Open,Wraps,F,Corrine Ingman,1988,67.3,UK,SBD,,,,,,,,,,,,,67.5
1,Open,Wraps,F,Tracy Draher,1975,75,USA,SBD,172.5,,,,,122.5,,,,,185,480,75
2,Open,Wraps,F,Ichinnorov Darkhanbaatar,1989,74.7,Mongolia,SBD,187.5,,,,,112.5,,,,,175,475,75
3,Open,Wraps,F,Tania George,1970,73.9,UK,SBD,145,,,,,110,,,,,200,455,75
4,Open,Wraps,F,Suzanne Prusnek,1956,68.5,USA,SBD,140,,,,,80,,,,,190,410,75
5,Open,Wraps,F,Eva Vyhlídalová,1988,70.2,Czechia,SBD,110,,,,,70,,,,,155,335,75
1,Open,Wraps,F,Tatiana Merezhko,1978,80.8,Russia,SBD,207.5,,,,,110,,,,,225,542.5,82.5
2,Open,Wraps,F,Alla Pugovkina,1975,80.5,Russia,SBD,127.5,,,,,100,,,,,172,399.5,82.5
3,Open,Wraps,F,Victoria Doga,1982,80.3,Moldova,SBD,90,,,,,70,,,,,142.5,302.5,82.5
1,Open,Wraps,F,Anna Mccloskey,1993,86.1,USA,SBD,167.5,,,,,90,,,,,202.5,460,90
2,Open,Wraps,F,Timea Szuromi,1983,83.3,Hungary,SBD,150,,,,,105,,,,,175,430,90
3,Open,Wraps,F,Cindy Costin-Fury,1982,86.9,Canada,SBD,80,,,,,67.5,,,,,125,272.5,90
1,Open,Wraps,F,Crystal Lahaie,1976,96.6,Canada,SBD,145,,,,,80,,,,,150,375,90+
1,M1,Wraps,F,Irina Pomerantsev,1970,43,Israel,SBD,77.5,,,,,62.5,,,,,100,240,52
1,M1,Wraps,F,Olga Mikhailova,1971,51.7,Russia,SBD,112.5,,,,,67.5,,,,,165,345,52
1,M1,Wraps,F,Tunde Stér,1971,60,Hungary,SBD,125,,,,,85,,,,,160,370,60
1,M1,Wraps,F,Kamila Tillack,1969,67.1,Germany,SBD,85,,,,,72.5,,,,,145,302.5,67.5
2,M1,Wraps,F,Ekaterina Maiorova,1970,63.3,Russia,SBD,75,,,,,55,,,,,90,220,67.5
1,M1,Wraps,F,Tania George,1970,73.9,UK,SBD,145,,,,,110,,,,,200,455,75
1,M2,Wraps,F,Larisa Potapovich,1965,47.1,Russia,SBD,70,,,,,42.5,,,,,100,212.5,52
1,M2,Wraps,F,Robin Pacholder,1967,51.6,USA,SBD,95,,,,,62.5,,,,,137.5,295,52
1,M2,Wraps,F,Elena Kuznetsova,1966,52.5,Russia,SBD,67.5,,,,,37.5,,,,,90,195,56
1,M3,Wraps,F,Lolita Zankl,1959,65.3,Germany,SBD,92.5,,,,,105,,,,,140,337.5,67.5
1,M4,Wraps,F,Suzanne Prusnek,1956,68.5,USA,SBD,140,,,,,80,,,,,190,410,75
1,M6,Wraps,F,Leslie Watson,1948,43.4,UK,SBD,50,,,,,60,,,,,90,200,52
1,T1,Wraps,M,Jorens Minats,2002,59.5,Latvia,SBD,62.5,,,,,30,,,,,90,182.5,60
1,T1,Wraps,M,Dans Minats,2001,73.5,Latvia,SBD,90,,,,,45,,,,,92.5,227.5,75
1,T1,Wraps,M,Mark Towers,1998,78.6,UK,SBD,75,,,,,60,,,,,150.5,285.5,82.5
1,T1,Wraps,M,Dominic Swanson,1998,98.2,USA,SBD,172.5,,,,,120,,,,,190,482.5,100
1,T2,Wraps,M,Lauris Kalasnikovs,1996,67,Latvia,SBD,161,,,,,95,,,,,195,451,67.5
2,T2,Wraps,M,Christopher Kalisz,1996,67.1,UK,SBD,150,,,,,100,,,,,190,440,67.5
1,T2,Wraps,M,Helvijs Niedra,1997,71.1,Latvia,SBD,120,,,,,80,,,,,160,360,75
1,T2,Wraps,M,Sebastian Schindecker,1996,96.4,Germany,SBD,185,,,,,135,,,,,240,560,100
1,T3,Wraps,M,Leo Joseph,1994,59.5,USA,SBD,125,,,,,102.5,,,,,160,387.5,60
1,T3,Wraps,M,Dean Piggott,1994,73.5,UK,SBD,170,,,,,110,,,,,200,480,75
1,T3,Wraps,M,Juraj Hájnik,1993,81.5,Slovakia,SBD,180,,,,,135,,,,,230,545,82.5
1,T3,Wraps,M,Adam Guman,1994,87.6,Slovakia,SBD,180,,,,,95,,,,,220,495,90
2,T3,Wraps,M,Adam Phelan,1995,88.6,Ireland,SBD,140,,,,,97.5,,,,,195,432.5,90
1,T3,Wraps,M,Kurt Mcevansoneya,1993,92.2,UK,SBD,200,,,,,130,,,,,240,570,100
1,Juniors,Wraps,M,Dale Humphreys,1991,63.6,UK,SBD,140,,,,,80,,,,,200,420,67.5
2,Juniors,Wraps,M,Josh Sykes,1990,63.6,UK,SBD,115,,,,,85,,,,,160,360,67.5
1,Juniors,Wraps,M,Byerdmurat Avdalkhamid,1992,74.2,Mongolia,SBD,180,,,,,147.5,,,,,230,557.5,75
1,Juniors,Wraps,M,Etienne Lewis-Morin,1991,80.8,UK,SBD,192.5,,,,,170,,,,,287.5,650,82.5
2,Juniors,Wraps,M,Rob Bragg,1991,82,UK,SBD,200,,,,,135,,,,,252.5,587.5,82.5
3,Juniors,Wraps,M,Marián Chrenovský,1990,79.1,Slovakia,SBD,150,,,,,95,,,,,185,430,82.5
1,Juniors,Wraps,M,Tom Sparks,1990,86.5,UK,SBD,220,,,,,140,,,,,280,640,90
2,Juniors,Wraps,M,Roman Grigar,1993,87.5,Czechia,SBD,175,,,,,120,,,,,220,515,90
1,Juniors,Wraps,M,Kamil Kanas,1990,95.5,Poland,SBD,245,,,,,195,,,,,265,705,100
2,Juniors,Wraps,M,Maxim Korepin,1991,99.8,Russia,SBD,250,,,,,180,,,,,252.5,682.5,100
3,Juniors,Wraps,M,Daniel Stewart,1993,97.8,UK,SBD,235,,,,,140,,,,,280,655,100
4,Juniors,Wraps,M,Alexander Smironov,1992,95.6,Kazakhstan,SBD,212.5,,,,,170,,,,,260,642.5,100
5,Juniors,Wraps,M,Adam Lemesányi,1992,96.2,Slovakia,SBD,210,,,,,125,,,,,215,550,100
6,Juniors,Wraps,M,Denis Hofman,1993,91.7,Czechia,SBD,160,,,,,107.5,,,,,210,477.5,100
1,Juniors,Wraps,M,Artem Kobanov,1992,108.4,Russia,SBD,295,,,,,225,,,,,320,840,110
2,Juniors,Wraps,M,Aleksandr Kadzaev,1990,107.3,Russia,SBD,240,,,,,170,,,,,310,720,110
3,Juniors,Wraps,M,Maciej Stępniak,1991,108.3,Poland,SBD,220,,,,,190,,,,,290,700,110
1,Juniors,Wraps,M,Ján Michalov,1990,112.9,Slovakia,SBD,280,,,,,180,,,,,315,775,125
2,Juniors,Wraps,M,Florido Daniel Acosta,1992,112.9,Germany,SBD,265,,,,,192.5,,,,,305,762.5,125
3,Juniors,Wraps,M,Ondřej Kiml,1990,114,Czechia,SBD,220,,,,,140,,,,,280,640,125
DQ,Juniors,Wraps,M,Péter Juhász,1993,119.9,Hungary,SBD,240,,,,,180,,,,,,,125
1,Open,Wraps,M,Pavel Balážik,1979,52,Slovakia,SBD,110,,,,,91,,,,,150.5,351.5,52
1,Open,Wraps,M,Andrey Kim,1986,59.9,Kazakhstan,SBD,175,,,,,142.5,,,,,227.5,545,60
2,Open,Wraps,M,Elmir Tarverdiev,1983,59.8,Azerbaijan,SBD,185,,,,,112.5,,,,,212.5,510,60
1,Open,Wraps,M,Igor Kuznetsov,1989,66.6,Russia,SBD,200,,,,,150,,,,,237.5,587.5,67.5
2,Open,Wraps,M,Mustig Aliyev,1977,66.7,Azerbaijan,SBD,180,,,,,130,,,,,180,490,67.5
1,Open,Wraps,M,Jeffrey Podszuweit,1977,73.7,Germany,SBD,225,,,,,175,,,,,242.5,642.5,75
2,Open,Wraps,M,Edvinas Vyšniauskas,1987,74.4,UK,SBD,230,,,,,150,,,,,225,605,75
3,Open,Wraps,M,Steffen Hackbart,1984,74.6,Germany,SBD,215,,,,,160,,,,,225,600,75
DQ,Open,Wraps,M,Pavel Tylis,1978,74.6,Israel,SBD,,,,,,,,,,,,,75
1,Open,Wraps,M,Alexey Nikulin,1982,80.6,Russia,SBD,275,,,,,170,,,,,305,750,82.5
2,Open,Wraps,M,Elmin Neftaliyev,1982,81.7,Azerbaijan,SBD,270,,,,,182.5,,,,,280,732.5,82.5
3,Open,Wraps,M,Jakub Sedláček,1988,82.4,Czechia,SBD,260,,,,,200,,,,,250,710,82.5
4,Open,Wraps,M,Joäo Manaia,1981,81.9,Portugal,SBD,250,,,,,152.5,,,,,270,672.5,82.5
5,Open,Wraps,M,Yerlan Alkeyev,1989,82.5,Kazakhstan,SBD,245,,,,,182.5,,,,,240,667.5,82.5
6,Open,Wraps,M,Etienne Lewis-Morin,1991,80.8,UK,SBD,192.5,,,,,170,,,,,287.5,650,82.5
7,Open,Wraps,M,Artur Dubinin,1987,78.7,Ukraine,SBD,210,,,,,155,,,,,245,610,82.5
1,Open,Wraps,M,Sergey Lukyanov,1986,90,Russia,SBD,275,,,,,175,,,,,300,750,90
2,Open,Wraps,M,Gunduz Mammadov,1983,90,Azerbaijan,SBD,280,,,,,195,,,,,270,745,90
3,Open,Wraps,M,Anton Galaguz,1986,90,Ukraine,SBD,262.5,,,,,175,,,,,280,717.5,90
4,Open,Wraps,M,Reza Zare Bahram Abadi,1972,88.9,Iran,SBD,240,,,,,175,,,,,290,705,90
5,Open,Wraps,M,Sébastien Hupfer,1981,89.3,France,SBD,250,,,,,160,,,,,260,670,90
6,Open,Wraps,M,Petr Krastenics,1989,88.3,Czechia,SBD,210,,,,,130,,,,,260,600,90
7,Open,Wraps,M,Martin Kostlán,1987,88.1,Czechia,SBD,195,,,,,130,,,,,240,565,90
8,Open,Wraps,M,Joel Reis,1988,85.1,Portugal,SBD,115,,,,,105,,,,,160,380,90
DQ,Open,Wraps,M,Viktor Galaguz,1984,89.8,Ukraine,SBD,270,,,,,195,,,,,,,90
1,Open,Wraps,M,Edvard Khanjyan,1985,96.9,Finland,SBD,275,,,,,170,,,,,310,755,100
2,Open,Wraps,M,Scott Halliday,1977,99.7,UK,SBD,255,,,,,200,,,,,300,755,100
3,Open,Wraps,M,Alaister Macnicol,1987,100,Canada,SBD,260,,,,,172.5,,,,,312.5,745,100
4,Open,Wraps,M,Vadym Katunin,1980,98.2,Israel,SBD,255,,,,,185,,,,,300,740,100
5,Open,Wraps,M,Erik Knöfler,1981,98.5,Germany,SBD,257.5,,,,,172.5,,,,,302.5,732.5,100
6,Open,Wraps,M,Jordan Moffitt,1987,97.1,Canada,SBD,250,,,,,170,,,,,290,710,100
7,Open,Wraps,M,Deleerkhishic Banzragch,1980,97.4,Mongolia,SBD,260,,,,,170,,,,,262.5,692.5,100
8,Open,Wraps,M,Josh Currann,1989,99.2,Canada,SBD,217.5,,,,,145,,,,,275,637.5,100
9,Open,Wraps,M,Azer Aliyev,1986,100,Azerbaijan,SBD,220,,,,,165,,,,,250,635,100
DQ,Open,Wraps,M,Ian Phelan,1976,96.1,Ireland,SBD,,,,,,,,,,,,,100
DQ,Open,Wraps,M,Gary Croft,1980,97.5,UK,SBD,,,,,,,,,,,,,100
DQ,Open,Wraps,M,Dušan Soukup,1988,98,Czechia,SBD,240,,,,,,,,,,,,100
1,Open,Wraps,M,Nikolay Fesanyuk,1984,107.9,Russia,SBD,345,,,,,190,,,,,347.5,882.5,110
2,Open,Wraps,M,Denis Rodyakin,1988,107.7,Russia,SBD,322.5,,,,,190,,,,,327.5,840,110
3,Open,Wraps,M,Artem Kobanov,1992,108.4,Russia,SBD,295,,,,,225,,,,,320,840,110
4,Open,Wraps,M,Petr Folprecht,1985,106.3,Czechia,SBD,285,,,,,165,,,,,327.5,777.5,110
5,Open,Wraps,M,Jacek Ostrowski,1985,104.9,Poland,SBD,250,,,,,190,,,,,285,725,110
6,Open,Wraps,M,Ville Antikainen,1988,107.7,Finland,SBD,280,,,,,155,,,,,290,725,110
7,Open,Wraps,M,Saifolla Tilyeubyerd,1987,109.1,Mongolia,SBD,250,,,,,190,,,,,270,710,110
8,Open,Wraps,M,Darren Hammond,1972,104.5,UK,SBD,230,,,,,140,,,,,300,670,110
9,Open,Wraps,M,Tsogzoldorj Dondog,1974,106.1,Mongolia,SBD,260,,,,,160,,,,,230,650,110
10,Open,Wraps,M,Ville Suominen,1982,107.5,Finland,SBD,220,,,,,160,,,,,265,645,110
11,Open,Wraps,M,Christian Krause,1977,102.7,Germany,SBD,187.5,,,,,147.5,,,,,205,540,110
DQ,Open,Wraps,M,Jiří Tkadlčík,1989,104.1,Czechia,SBD,245,,,,,190,,,,,,,110
DQ,Open,Wraps,M,Vladislav Lánik,1989,108.9,Czechia,SBD,260,,,,,200,,,,,,,110
DQ,Open,Wraps,M,Simon Norcup,1968,109.3,UK,SBD,290,,,,,205,,,,,,,110
1,Open,Wraps,M,Vladimir Golubev,1986,120.8,Kazakhstan,SBD,325,,,,,230,,,,,330,885,125
2,Open,Wraps,M,Stanislav Mordvinov,1983,121.6,Russia,SBD,310,,,,,215,,,,,320,845,125
3,Open,Wraps,M,Lauris Gabrans,1984,118.8,Latvia,SBD,325,,,,,210,,,,,300,835,125
4,Open,Wraps,M,Dallas Hogan,1976,119.5,Canada,SBD,280,,,,,200,,,,,340,820,125
DQ,Open,Wraps,M,Vladimir Chevronyshov,1948,120.8,Russia,SBD,,,,,,,,,,,,,125
DQ,Open,Wraps,M,Bahman Halimimamghani,1984,122.3,Iran,SBD,,,,,,,,,,,,,125
1,Open,Wraps,M,Jan Žvak,1978,125.4,Czechia,SBD,290,,,,,210,,,,,330,830,140
2,Open,Wraps,M,Vladimír Jeřábek,1989,125.1,Czechia,SBD,280,,,,,200,,,,,320,800,140
3,Open,Wraps,M,Dmitry Smirnov,1978,132.7,Russia,SBD,290,,,,,202.5,,,,,305,797.5,140
DQ,Open,Wraps,M,Michael Sommer,1988,130.8,Germany,SBD,280,,,,,200,,,,,,,140
DQ,Open,Wraps,M,Paul Fury,1976,136.2,Canada,SBD,,,,,,,,,,,,,140
1,Open,Wraps,M,Amir Tavakoli,1983,151.6,Iran,SBD,300,,,,,210,,,,,340,850,140+
2,Open,Wraps,M,Sergey Rubtsov,1964,172,Kazakhstan,SBD,290,,,,,190,,,,,340,820,140+
1,M1,Wraps,M,Marco Schwarz,1971,76.3,Switzerland,SBD,150,,,,,105,,,,,180,435,82.5
1,M1,Wraps,M,Andriy Galkevich,1971,89.1,Ukraine,SBD,251,,,,,170,,,,,240,661,90
2,M1,Wraps,M,Dave Rade,1969,86.6,Switzerland,SBD,220,,,,,150,,,,,260,630,90
1,M1,Wraps,M,José Teixeira,1970,97.2,Portugal,SBD,240,,,,,145,,,,,285,670,100
2,M1,Wraps,M,Jargalsaikhan Sosorbaram,1970,94.4,Mongolia,SBD,202.5,,,,,150,,,,,180,532.5,100
DQ,M1,Wraps,M,Vitaliy Kulikov,1971,99.3,Russia,SBD,,,,,,,,,,,,,100
1,M1,Wraps,M,Iakov Berman,1972,103.1,Russia,SBD,250,,,,,200,,,,,285,735,110
2,M1,Wraps,M,Sergei Samoilenko,1969,109.3,Russia,SBD,140,,,,,150,,,,,180,470,110
1,M1,Wraps,M,Yuriy Zakharov,1972,124,Kazakhstan,SBD,302.5,,,,,213,,,,,300,815.5,125
2,M1,Wraps,M,Yevgeniy Borissov,1971,116.2,Kazakhstan,SBD,200,,,,,160,,,,,260,620,125
1,M1,Wraps,M,Michael Schrott,1972,130.2,Germany,SBD,322.5,,,,,220,,,,,317.5,860,140
1,M2,Wraps,M,Roman Mandík,1968,74.3,Czechia,SBD,145,,,,,107.5,,,,,185,437.5,75
1,M2,Wraps,M,Steve Creedon,1964,88,USA,SBD,160,,,,,115,,,,,175,450,90
1,M2,Wraps,M,Valeriy Razdorozhnyi,1965,97,Ukraine,SBD,185,,,,,145,,,,,205,535,100
1,M2,Wraps,M,Václav Mareš,1968,109.3,Czechia,SBD,210,,,,,170,,,,,265,645,110
2,M2,Wraps,M,Oleg Korotaev,1965,108.8,Russia,SBD,190,,,,,130,,,,,220,540,110
1,M2,Wraps,M,Ferenc Gyenes,1968,110.7,Hungary,SBD,230,,,,,160,,,,,260,650,125
1,M2,Wraps,M,Sergey Rubtsov,1964,172.3,Kazakhstan,SBD,240,,,,,180,,,,,260,680,140+
1,M3,Wraps,M,Alexander Romanytchev,1963,55.2,Israel,SBD,130,,,,,110,,,,,180,420,56
1,M3,Wraps,M,Paul George,1962,81,UK,SBD,235,,,,,140,,,,,272.5,647.5,82.5
2,M3,Wraps,M,Peter Herák,1960,82,Slovakia,SBD,190,,,,,105,,,,,210,505,82.5
3,M3,Wraps,M,Tim Walsh,1963,81.4,USA,SBD,145,,,,,90,,,,,185,420,82.5
1,M3,Wraps,M,Ladislav Pasecký,1959,88.2,Czechia,SBD,155,,,,,90,,,,,220,465,90
1,M3,Wraps,M,Dainis Polis,1959,115.7,Latvia,SBD,200,,,,,155,,,,,215,570,125
1,M3,Wraps,M,Alexander Burlakov,1959,132.4,Russia,SBD,225,,,,,190,,,,,230,645,140
1,M4,Wraps,M,Anatolii Bochkovskyi,1954,66.5,Ukraine,SBD,170,,,,,95,,,,,210,475,67.5
1,M4,Wraps,M,Anatoli Shnaider,1957,73.3,Israel,SBD,162.5,,,,,115,,,,,185,462.5,75
1,M4,Wraps,M,Karel Schoř,1955,86.2,Czechia,SBD,190,,,,,140,,,,,250,580,90
2,M4,Wraps,M,Aleksandr Tcvetkov,1957,89.5,Russia,SBD,220,,,,,115,,,,,235,570,90
3,M4,Wraps,M,Milan Vezmar,1956,88.6,Serbia,SBD,110,,,,,110,,,,,180,400,90
1,M4,Wraps,M,József Sztanke,1954,91.8,Hungary,SBD,230.5,,,,,167.5,,,,,220,618,100
1,M4,Wraps,M,Joaquim Morais,1958,111.1,Portugal,SBD,210,,,,,160,,,,,220,590,125
1,M4,Wraps,M,Ismo Åman,1955,135.1,Finland,SBD,225,,,,,130,,,,,317.5,672.5,140
1,M5,Wraps,M,Vladimir Sviderskiy,1951,65.1,Russia,SBD,132.5,,,,,90,,,,,147.5,370,67.5
1,M5,Wraps,M,Burkhard Steffen,1950,73.7,Germany,SBD,165,,,,,100,,,,,155,420,75
1,M5,Wraps,M,Rui Faria,1951,80.5,Portugal,SBD,170,,,,,95,,,,,170,435,82.5
1,M5,Wraps,M,Ferenc Smuck,1952,88.4,Hungary,SBD,210,,,,,90,,,,,230,530,90
2,M5,Wraps,M,Vadim Grabar,1951,83,Latvia,SBD,177.5,,,,,97.5,,,,,247.5,522.5,90
1,M5,Wraps,M,Milivoj Gavrilov,1953,97,Serbia,SBD,190,,,,,130,,,,,170,490,100
1,M5,Wraps,M,Boris Doktorovich,1950,103.6,Israel,SBD,80,,,,,110,,,,,140,330,110
DQ,M6,Wraps,M,Budgie Mullan,1943,66.6,UK,SBD,80,,,,,70,,,,,,,67.5
1,M6,Wraps,M,Maamchuluun Tseveendorj,1946,82.1,Mongolia,SBD,170,,,,,115,,,,,180,465,82.5
1,M6,Wraps,M,Vladimir Chevronyshov,1948,120.8,Russia,SBD,200,,,,,132.5,,,,,220,552.5,125
1,M7,Wraps,M,Tsegmed Byambaa,1940,74.3,Mongolia,SBD,160,,,,,87.5,,,,,175,422.5,75
2,M7,Wraps,M,Ulrich Mielich,1939,74.2,Germany,SBD,80,,,,,62.5,,,,,115,257.5,75
1,M7,Wraps,M,Yuriy Chepets,1943,77.8,Russia,SBD,205,,,,,115,,,,,200,520,82.5
1,M7,Wraps,M,Valeriy Bystrov,1941,98.4,Russia,SBD,180,,,,,110,,,,,205,495,100
DQ,M8,Wraps,M,Ernest Ruzin,1937,62.7,Israel,SBD,,,,,,,,,,,,,67.5
